"A Hearty Breakfast","http://akc.verbbrands.com/recipes/a-hearty-breakfast","http://akc.verbbrands.com/wp-content/uploads/2016/02/a-hearty-breakfast-3.jpg"
"American Style Blueberry Pancakes","http://akc.verbbrands.com/recipes/american-style-blueberry-pancakes","http://akc.verbbrands.com/wp-content/uploads/2010/02/Blueberry-pancakes-3.jpg"
"Annabel's Bolognese","http://akc.verbbrands.com/recipes/annabels-bolognese","http://akc.verbbrands.com/wp-content/uploads/2010/05/FirstBolognese-3.jpg"
"Annabel's Granola","http://akc.verbbrands.com/recipes/annabels-granola","http://akc.verbbrands.com/wp-content/uploads/2008/03/Annabels-Granola-3.jpg"
"Annabel's Paella","http://akc.verbbrands.com/recipes/annabels-paella","http://akc.verbbrands.com/wp-content/uploads/2008/06/Annabels-Paella-3.jpg"
"Annabel's Quick Tomato Sauce","http://akc.verbbrands.com/recipes/annabels-quick-tomato-sauce","http://akc.verbbrands.com/wp-content/uploads/2013/05/Quick-and-Easy-Tomato-Sauce-3.jpg"
"Annabel's Yummy Beefburgers","http://akc.verbbrands.com/recipes/annabels-yummy-beefburgers","http://akc.verbbrands.com/wp-content/uploads/2007/08/Annabels-tasty-burgers-3.jpg"
"Apple & Almond Cake","http://akc.verbbrands.com/recipes/apple-almond-cake","http://akc.verbbrands.com/wp-content/uploads/2014/07/Apple-and-Almond-Cake-1-3.jpg"
"Apple & Honey Cupcakes","http://akc.verbbrands.com/recipes/apple-honey-cupcakes","http://akc.verbbrands.com/wp-content/uploads/2013/06/AppleHoneyCupcakes-3.jpg"
"Apple & Mango Puree","http://akc.verbbrands.com/recipes/apple-mango-puree","http://akc.verbbrands.com/wp-content/uploads/2014/08/Apple-and-mango-puree-3.jpg"
"Apple & Pear Sorbet","http://akc.verbbrands.com/recipes/apple-pear-sorbet","http://akc.verbbrands.com/wp-content/uploads/2010/04/Apple-and-Pear-Sorbet-3.jpg"
"Apple & Pear with Cinnamon Puree","http://akc.verbbrands.com/recipes/apple-pear-with-cinnamon-puree","http://akc.verbbrands.com/wp-content/uploads/2007/08/apple-pear-and-cinnamon-puree-3.jpg"
"Apple & Sultana Muffins","http://akc.verbbrands.com/recipes/apple-sultana-muffins","http://akc.verbbrands.com/wp-content/uploads/2014/01/Apple_and_Sultana_Muffins-3.jpg"
"Apple Meringue Tarts","http://akc.verbbrands.com/recipes/apple-meringue-tarts","http://akc.verbbrands.com/wp-content/uploads/2008/06/Apple-meringue_tarts-3.jpg"
"Apple Pancakes","http://akc.verbbrands.com/recipes/apple-pancakes","http://akc.verbbrands.com/wp-content/uploads/2008/06/ApplePancakes-3.jpg"
"Apple& Carrot Muffins with Maple Syrup","http://akc.verbbrands.com/recipes/apple-carrot-muffins-with-maple-syrup","http://akc.verbbrands.com/wp-content/uploads/2016/02/apple-carrot-muffins-3.jpg"
"Apricot & Ricotta Crepe","http://akc.verbbrands.com/recipes/apricot-ricotta-crepe","http://akc.verbbrands.com/wp-content/uploads/2010/02/ApricotRicottaCrepe-3.jpg"
"Apricot & White Chocolate Cereal Bars","http://akc.verbbrands.com/recipes/apricot-white-chocolate-cereal-bars","http://akc.verbbrands.com/wp-content/uploads/2010/10/ApricotCerealBars-3.jpg"
"Apricot Cookies","http://akc.verbbrands.com/recipes/apricot-cookies","http://akc.verbbrands.com/wp-content/uploads/2010/04/Apricot-Cookies-3.jpg"
"Apricot Dijon Drumsticks","http://akc.verbbrands.com/recipes/apricot-dijon-drumsticks","http://akc.verbbrands.com/wp-content/uploads/2010/04/Apricot-Dijon-Drumsticks-3.jpg"
"Apricot, Raisin & Chocolate Cookies","http://akc.verbbrands.com/recipes/apricot-raisin-chocolate-cookies","http://akc.verbbrands.com/wp-content/uploads/2015/07/Apricot-Raisin-and-Chocolate-Cookies-3.jpg"
"Aromatic Beef with Sweet Pepper & Apricots","http://akc.verbbrands.com/recipes/aromatic-beef-with-sweet-pepper-apricots","http://akc.verbbrands.com/wp-content/uploads/2016/06/Beef-Pepper-and-Apricot-Puree-3.jpg"
"Autumn Apple Muffins","http://akc.verbbrands.com/recipes/autumn-apple-muffins","http://akc.verbbrands.com/wp-content/uploads/2014/10/Autumn-Apple-Muffins-2-3.jpg"
"Avocado & Banana Puree","http://akc.verbbrands.com/recipes/avocado-banana-puree","http://akc.verbbrands.com/wp-content/uploads/2008/06/avocado-banana-puree-3.jpg"
"Avocado & Pine Nut Salad","http://akc.verbbrands.com/recipes/avocado-pine-nut-salad","http://akc.verbbrands.com/wp-content/uploads/2007/08/Avocado-and-pine-nut-salad-1-3.jpg"
"Avocado Puree","http://akc.verbbrands.com/recipes/avocado-puree","http://akc.verbbrands.com/wp-content/uploads/2007/08/avocado_nocook-3.jpg"
"Baby Baked Potatoes","http://akc.verbbrands.com/recipes/baby-baked-potatoes","http://akc.verbbrands.com/wp-content/uploads/2008/11/Baby-Baked-Potato-3.jpg"
"Baby Christmas Puddings","http://akc.verbbrands.com/recipes/baby-christmas-puddings","http://akc.verbbrands.com/wp-content/uploads/2014/11/Baby-Christmas-Puddings-3.jpg"
"Baby Yoghurt with Apricot & Banana","http://akc.verbbrands.com/recipes/baby-yoghurt-with-apricot-banana","http://akc.verbbrands.com/wp-content/uploads/2008/06/BabyYoghurtBananaApricot-3.jpg"
"Baby's First Bolognese Sauce","http://akc.verbbrands.com/recipes/babys-first-bolognese-sauce","http://akc.verbbrands.com/wp-content/uploads/2007/12/Bolognese2-3.jpg"
"Baby's First Pancakes","http://akc.verbbrands.com/recipes/babys-first-pancakes","http://akc.verbbrands.com/wp-content/uploads/2010/05/BabysFirstPancakes-3.jpg"
"Bag Baked Baby Potatoes","http://akc.verbbrands.com/recipes/bag-baked-baby-potatoes","http://akc.verbbrands.com/wp-content/uploads/2010/04/Bag-Baked-Baby-Potatoes-3.jpg"
"Baked Apples","http://akc.verbbrands.com/recipes/baked-apples","http://akc.verbbrands.com/wp-content/uploads/2009/12/BakedApples-3.jpg"
"Baked Potato Mice","http://akc.verbbrands.com/recipes/baked-potato-mice","http://akc.verbbrands.com/wp-content/uploads/2008/06/Jacket-Potato-Mice-3.jpg"
"Baked Potato Snowman","http://akc.verbbrands.com/recipes/baked-potato-snowman","http://akc.verbbrands.com/wp-content/uploads/2010/11/Potato-snowman-3.jpg"
"Baked Sweet Potato Puree","http://akc.verbbrands.com/recipes/baked-sweet-potato-puree","http://akc.verbbrands.com/wp-content/uploads/2013/06/Baked-Sweet-Potato-3.jpg"
"Banana & Maple Crepe","http://akc.verbbrands.com/recipes/banana-maple-crepe","http://akc.verbbrands.com/wp-content/uploads/2010/02/BananaMapleCrepe-3.jpg"
"Banana & Pear Ice Lollies","http://akc.verbbrands.com/recipes/banana-pear-ice-lollies","http://akc.verbbrands.com/wp-content/uploads/2010/10/Iced-Banana-and-Pear-Lollies-3.jpg"
"Banana Ice Cream","http://akc.verbbrands.com/recipes/banana-ice-cream","http://akc.verbbrands.com/wp-content/uploads/2010/04/Banana-Ice-Cream-3.jpg"
"Banana Muffins","http://akc.verbbrands.com/recipes/banana-muffins","http://akc.verbbrands.com/wp-content/uploads/2009/12/BananaMuffins-3.jpg"
"Banana Puree","http://akc.verbbrands.com/recipes/banana-puree","http://akc.verbbrands.com/wp-content/uploads/2007/08/bananapuree-3.jpg"
"Banana, Peach & Strawberry Puree","http://akc.verbbrands.com/recipes/banana-peach-strawberry-puree","http://akc.verbbrands.com/wp-content/uploads/2014/08/Banana-Peach-and-Strawberry-Puree-3.jpg"
"Barbecue Beef Fajitas","http://akc.verbbrands.com/recipes/barbecue-beef-fajitas","http://akc.verbbrands.com/wp-content/uploads/2009/06/bbq-beef-fajtas-3.jpg"
"Barbecue Chicken Wings","http://akc.verbbrands.com/recipes/barbecue-chicken-wings","http://akc.verbbrands.com/wp-content/uploads/2009/06/barbecue-chicken-wings-3.jpg"
"Barbecue Teriyaki Chicken Burger","http://akc.verbbrands.com/recipes/barbecue-teriyaki-chicken-burger","http://akc.verbbrands.com/wp-content/uploads/2009/06/Chicken-Terayki-Burger-3.jpg"
"BBQ Corn on the Cob with Cheesy Butter","http://akc.verbbrands.com/recipes/bbq-corn-on-the-cob-with-cheesy-butter","http://akc.verbbrands.com/wp-content/uploads/2009/06/cheesy-bbq-corn-on-the-cob-3.jpg"
"BBQ Ribs","http://akc.verbbrands.com/recipes/bbq-ribs","http://akc.verbbrands.com/wp-content/uploads/2014/07/BBQRibs-3.jpg"
"Beef & Spinach Stir Fry","http://akc.verbbrands.com/recipes/beef-spinach-stir-fry","http://akc.verbbrands.com/wp-content/uploads/2009/05/Beef-and-spinach-stirfry-3.jpg"
"Beef Bolognese with Courgetti & Sweet Potato Spaghetti","http://akc.verbbrands.com/recipes/beef-bolognese-with-courgetti-sweet-potato-spaghetti","http://akc.verbbrands.com/wp-content/uploads/2015/08/Beef_Bolognese_with_Courgetti_and_Sweet_Potato_Spaghetti-3.jpg"
"Beef Casserole for Baby","http://akc.verbbrands.com/recipes/beef-casserole-for-baby","http://akc.verbbrands.com/wp-content/uploads/2008/06/beefcasserole-3.jpg"
"Beef Lasagne","http://akc.verbbrands.com/recipes/beef-lasagne","http://akc.verbbrands.com/wp-content/uploads/2008/03/Beef-Lasagne-3.jpg"
"Beef with Kale and Butternut Squash","http://akc.verbbrands.com/recipes/beef-with-kale-and-butternut-squash","http://akc.verbbrands.com/wp-content/uploads/2015/12/beef-with-kale-and-butternut-squash-3.jpg"
"Beefy Sausage Rolls","http://akc.verbbrands.com/recipes/beefy-sausage-rolls","http://akc.verbbrands.com/wp-content/uploads/2008/09/Beefy-sausage-roll-3.jpg"
"Berry and White Choc Tart","http://akc.verbbrands.com/recipes/berry-and-white-choc-tart","http://akc.verbbrands.com/wp-content/uploads/2016/02/berry-white-choc-tart-3.jpg"
"Berry Burst Smoothie","http://akc.verbbrands.com/recipes/berry-burst-smoothie","http://akc.verbbrands.com/wp-content/uploads/2008/06/berry-burst-smoothie-3.jpg"
"Blackberry and Apple Crumble","http://akc.verbbrands.com/recipes/blackberry-and-apple-crumble","http://akc.verbbrands.com/wp-content/uploads/2008/06/Blackberry-and-Apple-Crumble-3.jpg"
"BLT with Maple Roasted Bacon","http://akc.verbbrands.com/recipes/blt-with-maple-roasted-bacon","http://akc.verbbrands.com/wp-content/uploads/2009/10/Maple-Roasted-BLT-3.jpg"
"Blue Cheese and Pecan Salad","http://akc.verbbrands.com/recipes/blue-cheese-and-pecan-salad","http://akc.verbbrands.com/wp-content/uploads/2009/02/Blue-Cheese-And-Pecan-Salad-3.jpg"
"Blueberry, Pear & Banana Puree","http://akc.verbbrands.com/recipes/blueberry-pear-banana-puree","http://akc.verbbrands.com/wp-content/uploads/2014/06/Blueberry-Pear-and-Banana-Puree-3.jpg"
"Bowtie Pasta Salad with Chicken","http://akc.verbbrands.com/recipes/bowtie-pasta-salad-with-chicken","http://akc.verbbrands.com/wp-content/uploads/2008/07/Summer-Pasta-Salad-3.jpg"
"Brain Cakes","http://akc.verbbrands.com/recipes/brain-cakes","http://akc.verbbrands.com/wp-content/uploads/2007/09/brain-cupcakes-3.jpg"
"Braised Beef with Sweet Potato Puree","http://akc.verbbrands.com/recipes/braised-beef-with-sweet-potato-puree","http://akc.verbbrands.com/wp-content/uploads/2008/06/braised-beef-sweet-potato-puree-3.jpg"
"Breakfast Wrap","http://akc.verbbrands.com/recipes/breakfast-wrap","http://akc.verbbrands.com/wp-content/uploads/2008/06/Breakfast-Wrap-3.jpg"
"Brulee-Style Strawberry Dessert","http://akc.verbbrands.com/recipes/brulee-style-strawberry-dessert","http://akc.verbbrands.com/wp-content/uploads/2012/06/Brulee-Style-Dessert-3.jpg"
"Bunny Bread","http://akc.verbbrands.com/recipes/bunny-bread","http://akc.verbbrands.com/wp-content/uploads/2015/04/Bunny-Bread-Recipe-3.jpg"
"Butternut Squash & Pear Puree","http://akc.verbbrands.com/recipes/butternut-squash-pear-puree","http://akc.verbbrands.com/wp-content/uploads/2007/08/Butternut-Squash-and-Pear-3.jpg"
"Butternut Squash with Carrot Puree","http://akc.verbbrands.com/recipes/butternut-squash-with-carrot-puree","http://akc.verbbrands.com/wp-content/uploads/2008/06/butternut-squash-and-carrot-3.jpg"
"Butternut Squash, Carrot & Sweetcorn Puree","http://akc.verbbrands.com/recipes/butternut-squash-carrot-sweetcorn-puree","http://akc.verbbrands.com/wp-content/uploads/2014/06/Butternut-Squash-Carrot-and-Sweetcorn-Puree-3.jpg"
"Butternut Squash, Chicken & Sage Mash","http://akc.verbbrands.com/recipes/butternut-squash-chicken-sage-mash","http://akc.verbbrands.com/wp-content/uploads/2016/06/HF_Butternut_Chicken_Sage2WorkLres-3.jpg"
"Butternut Squash, Pea, Broccoli & Kale","http://akc.verbbrands.com/recipes/butternut-squash-pea-broccoli-kale","http://akc.verbbrands.com/wp-content/uploads/2016/04/Butternutsquash_kale_broc_pea-3.jpg"
"Butternut Squash, Salmon & Dill","http://akc.verbbrands.com/recipes/butternut-squash-salmon-dill","http://akc.verbbrands.com/wp-content/uploads/2016/01/butternut-squash-salmon-dill-puree-3.jpg"
"Cannelloni with Pumpkin & Spinach","http://akc.verbbrands.com/recipes/cannelloni-with-pumpkin-spinach","http://akc.verbbrands.com/wp-content/uploads/2015/12/cannelloni-with-pumpkin-and-spinach-3.jpg"
"Caramelised Onion & Mozzarella Tortilla Wraps","http://akc.verbbrands.com/recipes/caramelised-onion-mozzarella-tortilla-wraps","http://akc.verbbrands.com/wp-content/uploads/2007/08/caramelised-onion-and-mozzarella-wrap-3.jpg"
"Carrot & Apple Cake with Cream Cheese Icing","http://akc.verbbrands.com/recipes/carrot-apple-cake-with-cream-cheese-icing","http://akc.verbbrands.com/wp-content/uploads/2015/08/Carrot_and_Apple_Cake_with_Cream_Cheese_Icing-3.jpg"
"Carrot Cupcakes","http://akc.verbbrands.com/recipes/carrot-cupcakes","http://akc.verbbrands.com/wp-content/uploads/2008/07/Carrot-cupcakes-3.jpg"
"Carrot Puree","http://akc.verbbrands.com/recipes/carrot-puree","http://akc.verbbrands.com/wp-content/uploads/2007/09/carrot-puree-3.jpg"
"Carrot puree with lentils & cheese","http://akc.verbbrands.com/recipes/carrot-puree-with-lentils-cheese","http://akc.verbbrands.com/wp-content/uploads/2009/01/Carrot-puree-with-lentils-cheese-3.jpg"
"Carrot, Apple & Sweet Potato","http://akc.verbbrands.com/recipes/carrot-apple-sweet-potato","http://akc.verbbrands.com/wp-content/uploads/2015/07/Carrot-Apple-and-Sweet-Potato-3.jpg"
"Carrot, Courgette & Sweetcorn Fritters","http://akc.verbbrands.com/recipes/carrot-courgette-sweetcorn-fritters","http://akc.verbbrands.com/wp-content/uploads/2015/01/sweetcorn-fritters-april-3.jpg"
"Carrot, Parsnip & Kale Puree","http://akc.verbbrands.com/recipes/carrot-parsnip-kale-puree","http://akc.verbbrands.com/wp-content/uploads/2016/06/Kale-Puree-3.jpg"
"Carrots, Broccoli & Cheese Puree","http://akc.verbbrands.com/recipes/carrots-broccoli-cheese-puree","http://akc.verbbrands.com/wp-content/uploads/2007/08/carrots-brocoli-cheese-3.jpg"
"Caterpillar Pinwheels","http://akc.verbbrands.com/recipes/caterpillar-pinwheels","http://akc.verbbrands.com/wp-content/uploads/2015/02/Caterpillar-Pinwheels-3.jpg"
"Celebratory Ice Cream Sundaes","http://akc.verbbrands.com/recipes/celebratory-ice-cream-sundaes","http://akc.verbbrands.com/wp-content/uploads/2013/07/Ice_cream_sundae-3.jpg"
"Cheese & Cherry Tomato Muffins","http://akc.verbbrands.com/recipes/cheese-cherry-tomato-muffins","http://akc.verbbrands.com/wp-content/uploads/2016/06/Cheese-and-Cherry-Tomato-Muffins-3.jpg"
"Cheese & Ham Crepes","http://akc.verbbrands.com/recipes/cheese-ham-crepes","http://akc.verbbrands.com/wp-content/uploads/2009/01/CheeseAndHamCrepes-3.jpg"
"Cheese Quiche","http://akc.verbbrands.com/recipes/cheese-quiche","http://akc.verbbrands.com/wp-content/uploads/2008/01/CheesyMiniQuiches-3.jpg"
"Cheesy Baked Potato","http://akc.verbbrands.com/recipes/cheesy-baked-potato","http://akc.verbbrands.com/wp-content/uploads/2007/08/CheesyBakedPotato-3.jpg"
"Cheesy Pasta Stars","http://akc.verbbrands.com/recipes/cheesy-pasta-stars","http://akc.verbbrands.com/wp-content/uploads/2007/08/Cheesy-Pasta-Stars_1-3.jpg"
"Cheesy Vegetable & Cashew Nut Burgers","http://akc.verbbrands.com/recipes/cheesy-vegetable-cashew-nut-burgers","http://akc.verbbrands.com/wp-content/uploads/2013/06/CashewNutBurgers-3.jpg"
"Chicken , Parnsip, Carrot and Swede","http://akc.verbbrands.com/recipes/chicken-parnsip-carrot-and-swede","http://akc.verbbrands.com/wp-content/uploads/2016/06/Chicken-Carrot-Parsnip-and-Swede-40018449WorkLres-3.jpg"
"Chicken & Apple Balls","http://akc.verbbrands.com/recipes/chicken-apple-balls","http://akc.verbbrands.com/wp-content/uploads/2013/06/Chicken-and-Apple-Balls-3.jpg"
"Chicken & Butternut Squash Mummy","http://akc.verbbrands.com/recipes/chicken-butternut-squash-mummy","http://akc.verbbrands.com/wp-content/uploads/2015/09/Chicken_and_Butternut_Squash_Mummy-3.jpg"
"Chicken & Corn Chowder","http://akc.verbbrands.com/recipes/chicken-corn-chowder","http://akc.verbbrands.com/wp-content/uploads/2008/06/Chicken-and-Corn-Chowder-3.jpg"
"Chicken & Potato Pie","http://akc.verbbrands.com/recipes/chicken-potato-pie","http://akc.verbbrands.com/wp-content/uploads/2012/06/Chicken-and-Potato-Pie-3.jpg"
"Chicken & Sweet Pepper Lasagne","http://akc.verbbrands.com/recipes/chicken-sweet-pepper-lasagne","http://akc.verbbrands.com/wp-content/uploads/2014/08/Chicken-and-sweet-pepper-lasagne-3.jpg"
"Chicken & Vegetable Stir Fry","http://akc.verbbrands.com/recipes/chicken-vegetable-stir-fry","http://akc.verbbrands.com/wp-content/uploads/2015/01/Chicken-Vegetable-Stir-Fry-3.jpg"
"Chicken Balls with Pesto in a Tomato Sauce","http://akc.verbbrands.com/recipes/chicken-balls-with-pesto-in-a-tomato-sauce","http://akc.verbbrands.com/wp-content/uploads/2016/06/HF_ChickenBallsTomSauce3WorkLres-3.jpg"
"Chicken Burger","http://akc.verbbrands.com/recipes/chicken-burger","http://akc.verbbrands.com/wp-content/uploads/2009/12/ChickenBurger-3.jpg"
"Chicken Caesar Salad","http://akc.verbbrands.com/recipes/chicken-caesar-salad","http://akc.verbbrands.com/wp-content/uploads/2007/08/Chicken-Caesar-Salad-3.jpg"
"Chicken Curry Puree","http://akc.verbbrands.com/recipes/chicken-curry-puree","http://akc.verbbrands.com/wp-content/uploads/2016/06/ChickenCurryPuree1work.png"
"Chicken Fajitas","http://akc.verbbrands.com/recipes/chicken-fajitas","http://akc.verbbrands.com/wp-content/uploads/2008/11/Chicken-Fajitas-3.jpg"
"Chicken Goujons Wrapped in Parma Ham","http://akc.verbbrands.com/recipes/chicken-goujons-wrapped-in-parma-ham","http://akc.verbbrands.com/wp-content/uploads/2016/03/chicken-goujons-wrapped-in-parma-ham-3.jpg"
"Chicken in a BBQ Sauce","http://akc.verbbrands.com/recipes/chicken-in-a-bbq-sauce","http://akc.verbbrands.com/wp-content/uploads/2016/06/HF_ChickenBBQSauce2WorkLres-3.jpg"
"Chicken Noodle","http://akc.verbbrands.com/recipes/chicken-noodle","http://akc.verbbrands.com/wp-content/uploads/2008/01/NoodleChicken-3.jpg"
"Chicken on the Griddle","http://akc.verbbrands.com/recipes/chicken-on-the-griddle","http://akc.verbbrands.com/wp-content/uploads/2007/08/Chicken-on-the-griddle-3.jpg"
"Chicken or Turkey Sliders","http://akc.verbbrands.com/recipes/chicken-or-turkey-sliders","http://akc.verbbrands.com/wp-content/uploads/2010/05/Chicken-Sliders-3.jpg"
"Chicken Parmigiana","http://akc.verbbrands.com/recipes/chicken-parmigiana","http://akc.verbbrands.com/wp-content/uploads/2016/01/chicken-parmigiana-3.jpg"
"Chicken Pasta","http://akc.verbbrands.com/recipes/chicken-pasta","http://akc.verbbrands.com/wp-content/uploads/2015/01/chicken-pasta-salad-3397-011083email-3.jpg"
"Chicken Pasta Salad","http://akc.verbbrands.com/recipes/chicken-pasta-salad","http://akc.verbbrands.com/wp-content/uploads/2009/12/PastaSalad-3.jpg"
"Chicken Pitta Pockets","http://akc.verbbrands.com/recipes/chicken-pitta-pockets","http://akc.verbbrands.com/wp-content/uploads/2007/08/Grilled-Chicken-Pitta-Pockets-3.jpg"
"Chicken Rice","http://akc.verbbrands.com/recipes/chicken-rice","http://akc.verbbrands.com/wp-content/uploads/2009/10/ChickenRice-3.jpg"
"Chicken Salad with French Beans and Cherry Tomatoes","http://akc.verbbrands.com/recipes/chicken-salad-with-french-beans-and-cherry-tomatoes","http://akc.verbbrands.com/wp-content/uploads/2015/08/Chicken_Salad_with_French_Beans_And_Cherry_Tomatoes-3.jpg"
"Chicken Satay","http://akc.verbbrands.com/recipes/chicken-satay","http://akc.verbbrands.com/wp-content/uploads/2008/03/chicken-satay-3.jpg"
"Chicken Soup Recipe","http://akc.verbbrands.com/recipes/chicken-soup-recipe","http://akc.verbbrands.com/wp-content/uploads/2009/10/ChickenSoup-3.jpg"
"Chicken Stir Fry with Sugar Snap Peas","http://akc.verbbrands.com/recipes/chicken-stir-fry-with-sugar-snap-peas","http://akc.verbbrands.com/wp-content/uploads/2014/08/Pork-Stir-Fry-3.jpg"
"Chicken Tikka Masala","http://akc.verbbrands.com/recipes/chicken-tikka-masala","http://akc.verbbrands.com/wp-content/uploads/2010/02/Chicken-Tikka-Masala-3.jpg"
"Chicken with Apricots","http://akc.verbbrands.com/recipes/chicken-with-apricots","http://akc.verbbrands.com/wp-content/uploads/2016/06/Chicken-Puree-with-Apricots-3.jpg"
"Chicken with Apricots & Chickpeas","http://akc.verbbrands.com/recipes/chicken-with-apricots-chickpeas","http://akc.verbbrands.com/wp-content/uploads/2015/12/chicken-apricot-3.jpg"
"Chicken with Apricots and Chickpeas","http://akc.verbbrands.com/recipes/chicken-with-apricots-and-chickpeas","http://akc.verbbrands.com/wp-content/uploads/2016/06/HF_Chicken_Apricot_Curry1Work.png-3.jpg"
"Chicken with Carrots & Apple Puree","http://akc.verbbrands.com/recipes/chicken-with-carrots-apple-puree","http://akc.verbbrands.com/wp-content/uploads/2008/06/chicken-carrot-apple-puree-3.jpg"
"Chicken with Summer Vegetables","http://akc.verbbrands.com/recipes/chicken-with-summer-vegetables","http://akc.verbbrands.com/wp-content/uploads/2009/01/chicken-with-summer-vegetables-3.jpg"
"Chicken Wrap","http://akc.verbbrands.com/recipes/chicken-wrap","http://akc.verbbrands.com/wp-content/uploads/2009/10/ChickenWrap-3.jpg"
"Chicken, Broccoli & Mangetout Pasta Salad","http://akc.verbbrands.com/recipes/chicken-broccoli-mangetout-pasta-salad","http://akc.verbbrands.com/wp-content/uploads/2009/05/Chicken-Broccoli-and-Mangtout-Pasta-Salad-3.jpg"
"Chicken, Parsnip, Carrot & Swede","http://akc.verbbrands.com/recipes/chicken-parsnip-carrot-swede","http://akc.verbbrands.com/wp-content/uploads/2015/06/Chicken-Parsnip-Carrot-and-Swede-3.jpg"
"Chicken, Squash & Spinach","http://akc.verbbrands.com/recipes/chicken-squash-spinach","http://akc.verbbrands.com/wp-content/uploads/2016/06/Chicken-and-Spinach-Puree-3.jpg"
"Chicken, Sweetcorn & Cucumber Wraps","http://akc.verbbrands.com/recipes/chicken-sweetcorn-cucumber-wraps","http://akc.verbbrands.com/wp-content/uploads/2016/01/chicken-sweetcorn-cucumber-wraps-3.jpg"
"Chicken, Sweetcorn & Tarragon Pie","http://akc.verbbrands.com/recipes/chicken-sweetcorn-tarragon-pie","http://akc.verbbrands.com/wp-content/uploads/2015/07/Chicken-Sweetcorn-and-Tarragon-Pie-3.jpg"
"Chicken, Tomato & Basil Pasta","http://akc.verbbrands.com/recipes/chicken-tomato-basil-pasta","http://akc.verbbrands.com/wp-content/uploads/2015/07/Chicken-Tomato-and-Basil-Pasta-3.jpg"
"Children's Low Fat Recipes - Salmon Skewers","http://akc.verbbrands.com/recipes/childrens-low-fat-recipes-salmon-skewers","http://akc.verbbrands.com/wp-content/uploads/2007/10/SalmonSkewers-3.jpg"
"Chilli Con Carne","http://akc.verbbrands.com/recipes/chilli-con-carne","http://akc.verbbrands.com/wp-content/uploads/2010/10/Chilli-Con-Carne-3.jpg"
"Chinese Chicken & Rice","http://akc.verbbrands.com/recipes/chinese-chicken-rice","http://akc.verbbrands.com/wp-content/uploads/2015/01/Chinese-chicken-and-rice-3.jpg"
"Chinese Chicken Noodles","http://akc.verbbrands.com/recipes/chinese-chicken-noodles","http://akc.verbbrands.com/wp-content/uploads/2008/06/Chinese-Chicken-Noodles-3.jpg"
"Chinese Fish Fillets","http://akc.verbbrands.com/recipes/chinese-fish-fillets","http://akc.verbbrands.com/wp-content/uploads/2009/05/Chinese-Fish-Fillets-3.jpg"
"Chinese Style Pork in Lettuce Boats","http://akc.verbbrands.com/recipes/chinese-style-pork-in-lettuce-boats","http://akc.verbbrands.com/wp-content/uploads/2015/06/Chinese_Style_Pork_in_Lettuce_Boats-3.jpg"
"Chocolate & Toffee Cheesecake","http://akc.verbbrands.com/recipes/chocolate-toffee-cheesecake","http://akc.verbbrands.com/wp-content/uploads/2014/03/Chocolate-and-Toffee-Cheesecake-3.jpg"
"Chocolate Beetroot Brownies","http://akc.verbbrands.com/recipes/chocolate-beetroot-brownies","http://akc.verbbrands.com/wp-content/uploads/2015/12/HF_Brownie3Work-3.jpg"
"Chocolate Bunnypops","http://akc.verbbrands.com/recipes/chocolate-bunnypops","http://akc.verbbrands.com/wp-content/uploads/2010/03/ChocolateBunnyPops-3.jpg"
"Chocolate Egg Nests","http://akc.verbbrands.com/recipes/chocolate-egg-nests","http://akc.verbbrands.com/wp-content/uploads/2009/04/ChocolateEggNests-3.jpg"
"Chocolate Heart Cake","http://akc.verbbrands.com/recipes/chocolate-heart-cake","http://akc.verbbrands.com/wp-content/uploads/2010/02/chocolate-heart-cake-3.jpg"
"Chocolate Orange Brownies","http://akc.verbbrands.com/recipes/chocolate-orange-brownies","http://akc.verbbrands.com/wp-content/uploads/2015/10/chocolate-orange-brownies-3625-111143_work-3.jpg"
"Chocolate Orange Mini Muffins","http://akc.verbbrands.com/recipes/chocolate-orange-mini-muffins","http://akc.verbbrands.com/wp-content/uploads/2016/02/chocolate-orange-mini-muffins-3.jpg"
"Chocolate Pudding","http://akc.verbbrands.com/recipes/chocolate-pudding","http://akc.verbbrands.com/wp-content/uploads/2012/10/chocolate-pudding-3.jpg"
"Chocolate Rudolph Cupcakes","http://akc.verbbrands.com/recipes/chocolate-rudolph-cupcakes","http://akc.verbbrands.com/wp-content/uploads/2015/12/chocolate-rudolph-3.jpg"
"Chopped Cobb Salad","http://akc.verbbrands.com/recipes/chopped-cobb-salad","http://akc.verbbrands.com/wp-content/uploads/2015/07/Chopped-Cobb-Salad.jpg"
"Christmas Cake","http://akc.verbbrands.com/recipes/christmas-cake","http://akc.verbbrands.com/wp-content/uploads/2007/11/Christmas-Cake-Recipe-3.jpg"
"Christmas Granola","http://akc.verbbrands.com/recipes/christmas-granola","http://akc.verbbrands.com/wp-content/uploads/2009/05/granola-3.jpg"
"Christmas Pudding Whoopie Pies","http://akc.verbbrands.com/recipes/christmas-pudding-whoopie-pies","http://akc.verbbrands.com/wp-content/uploads/2013/12/Christmas-Whoopie-Puddings-3.jpg"
"Christmas Tree Cupcakes","http://akc.verbbrands.com/recipes/christmas-tree-cupcakes","http://akc.verbbrands.com/wp-content/uploads/2013/12/Christmas-Tree-Cupcakes-3.jpg"
"Christmas Tree Pop Cakes","http://akc.verbbrands.com/recipes/christmas-tree-pop-cakes","http://akc.verbbrands.com/wp-content/uploads/2015/12/christmas-tree-pop-cake-3.jpg"
"Ciabatta Sandwich Loaf","http://akc.verbbrands.com/recipes/ciabatta-sandwich-loaf","http://akc.verbbrands.com/wp-content/uploads/2010/04/Ciabatta-Loaf-Sandwich-3.jpg"
"Cinderella's Coach Risotto","http://akc.verbbrands.com/recipes/cinderellas-coach-risotto","http://akc.verbbrands.com/wp-content/uploads/2015/03/Cinderella_pumpkin-risotto-3594-102365-3.jpg"
"Cinderella's Coach Risotto","http://akc.verbbrands.com/recipes/cinderellas-coach-risotto-2","http://akc.verbbrands.com/wp-content/uploads/2009/10/Pumpkin-risotto-3.jpg"
"Clams & Prawns with Spiralized Courgettes","http://akc.verbbrands.com/recipes/clams-prawns-with-spiralized-courgettes","http://akc.verbbrands.com/wp-content/uploads/2015/08/Clams_and_Prawns_with_Spiralized_Courgettes-3.jpg"
"Clown Face Sandwich","http://akc.verbbrands.com/recipes/clown-face-sandwich","http://akc.verbbrands.com/wp-content/uploads/2016/01/clown-face-sandwich-3.jpg"
"Cod & Spinach Puree","http://akc.verbbrands.com/recipes/cod-spinach-puree","http://akc.verbbrands.com/wp-content/uploads/2010/06/cod-and-spinach-puree-3.jpg"
"Cod in White Wine & Chive Sauce","http://akc.verbbrands.com/recipes/cod-in-white-wine-chive-sauce","http://akc.verbbrands.com/wp-content/uploads/2011/07/Cod-in-white-wine-sauce-3.jpg"
"Cod with Butternut Squash","http://akc.verbbrands.com/recipes/cod-with-butternut-squash","http://akc.verbbrands.com/wp-content/uploads/2010/05/CodButternutSquash-3.jpg"
"Corn and Chicken Laksa","http://akc.verbbrands.com/recipes/corn-and-chicken-laksa","http://akc.verbbrands.com/wp-content/uploads/2015/08/Corn_and_Chicken_Laksa-3.jpg"
"Corn Quesadilla","http://akc.verbbrands.com/recipes/corn-quesadilla","http://akc.verbbrands.com/wp-content/uploads/2008/02/CornQuesadilla-3.jpg"
"Coronation Chicken & Mango Wrap","http://akc.verbbrands.com/recipes/coronation-chicken-mango-wrap","http://akc.verbbrands.com/wp-content/uploads/2009/07/Coronation-Chicken-Wrap-3.jpg"
"Country Chicken Casserole","http://akc.verbbrands.com/recipes/country-chicken-casserole","http://akc.verbbrands.com/wp-content/uploads/2016/06/Country-Chicken-Casserole-PO40018409WorkLres-3.jpg"
"Courgette & Raisin Muffins","http://akc.verbbrands.com/recipes/courgette-raisin-muffins","http://akc.verbbrands.com/wp-content/uploads/2007/08/Courgette-and-Raisin-muffins-3.jpg"
"Couscous Salad","http://akc.verbbrands.com/recipes/couscous-salad","http://akc.verbbrands.com/wp-content/uploads/2007/10/CouscousSalad-3.jpg"
"Cranberry & White Chocolate Krispie Slices","http://akc.verbbrands.com/recipes/cranberry-white-chocolate-krispie-slices","http://akc.verbbrands.com/wp-content/uploads/2016/01/cranberry-and-white-chocolate-krispie-slices-3.jpg"
"Cranberry and White Chocolate Cookies","http://akc.verbbrands.com/recipes/cranberry-and-white-chocolate-cookies","http://akc.verbbrands.com/wp-content/uploads/2013/08/Cranberry-and-White-Chocolate-Cookie-3.jpg"
"Creamy Chicken & Vegetable Soup","http://akc.verbbrands.com/recipes/creamy-chicken-vegetable-soup","http://akc.verbbrands.com/wp-content/uploads/2015/01/Creamy-Chicken-and-Vegetable-Soup-1024x768-3.jpg"
"Creamy Tomato & Basil Pasta","http://akc.verbbrands.com/recipes/creamy-tomato-basil-pasta","http://akc.verbbrands.com/wp-content/uploads/2016/01/creamy-tomato-and-basil-pasta-3.jpg"
"Crepe Recipe","http://akc.verbbrands.com/recipes/crepe-recipe","http://akc.verbbrands.com/wp-content/uploads/2010/02/CrepeRecipe-3.jpg"
"Crown Jewel Cookies","http://akc.verbbrands.com/recipes/crown-jewel-cookies","http://akc.verbbrands.com/wp-content/uploads/2016/05/Crown_Jewel_Cookies-3.jpg"
"Crown Pavlova","http://akc.verbbrands.com/recipes/crown-pavlova","http://akc.verbbrands.com/wp-content/uploads/2013/07/crown-pavlova-3.jpg"
"Crown Sandwiches","http://akc.verbbrands.com/recipes/crown-sandwiches","http://akc.verbbrands.com/wp-content/uploads/2013/07/Crown-Sandwiches-3.jpg"
"Crunchy Salmon Fish Cakes","http://akc.verbbrands.com/recipes/crunchy-salmon-fish-cakes","http://akc.verbbrands.com/wp-content/uploads/2016/01/crispy-salmon-fish-cakes-3.jpg"
"Cucumber, Carrot & Chicken Salad with Oriental Dressing","http://akc.verbbrands.com/recipes/cucumber-carrot-chicken-salad-with-oriental-dressing","http://akc.verbbrands.com/wp-content/uploads/2015/06/Cucumber-Carrot-and-Chicken-Salad-with-Oriental-Dressing-3.jpg"
"Curried Spiralized Sweet Potato","http://akc.verbbrands.com/recipes/curried-spiralized-sweet-potato","http://akc.verbbrands.com/wp-content/uploads/2015/08/Curried_Spiralized_Sweet_Potato-3.jpg"
"Dairy-Free Summer Berry Smoothie","http://akc.verbbrands.com/recipes/dairy-free-summer-berry-smoothie","http://akc.verbbrands.com/wp-content/uploads/2013/05/dairy-free-smoothie-3.jpg"
"Deadman's Finger Sandwiches","http://akc.verbbrands.com/recipes/deadmans-finger-sandwiches","http://akc.verbbrands.com/wp-content/uploads/2007/09/Deadman-Finger-Sandwiches-3.jpg"
"Dips","http://akc.verbbrands.com/recipes/dips","http://akc.verbbrands.com/wp-content/uploads/2015/06/Garlic-Pitta-Breadsticks-1-3.jpg"
"Duck Stir Fry with Plum Sauce","http://akc.verbbrands.com/recipes/duck-stir-fry-with-plum-sauce","http://akc.verbbrands.com/wp-content/uploads/2016/02/duck-stir-fry-plum-sauce-3.jpg"
"Easter Cake","http://akc.verbbrands.com/recipes/easter-cake","http://akc.verbbrands.com/wp-content/uploads/2010/03/EasterCake-3.jpg"
"Easter Chick Cupcakes","http://akc.verbbrands.com/recipes/easter-chick-cupcakes","http://akc.verbbrands.com/wp-content/uploads/2013/03/easter-chick-cupcakes-3.jpg"
"Easy Cupcakes","http://akc.verbbrands.com/recipes/easy-cupcakes","http://akc.verbbrands.com/wp-content/uploads/2013/09/Easy-Cupcakes-3.jpg"
"Easy One Pot Chicken","http://akc.verbbrands.com/recipes/easy-one-pot-chicken","http://akc.verbbrands.com/wp-content/uploads/2009/06/easy-one-pot-chicken-puree-3.jpg"
"Eat Your Greens Puree","http://akc.verbbrands.com/recipes/eat-your-greens-puree","http://akc.verbbrands.com/wp-content/uploads/2009/01/eat-your-greens-puree-3.jpg"
"Elderflower Jelly","http://akc.verbbrands.com/recipes/elderflower-jelly","http://akc.verbbrands.com/wp-content/uploads/2008/06/Elderflower-jelly-3.jpg"
"English Rose Cupcakes","http://akc.verbbrands.com/recipes/english-rose-cupcakes","http://akc.verbbrands.com/wp-content/uploads/2016/05/English_Rose_Cupcakes-3.jpg"
"Eton Mess","http://akc.verbbrands.com/recipes/eton-mess","http://akc.verbbrands.com/wp-content/uploads/2008/06/Eton-Mess-3.jpg"
"Evelyn's Sweet & Sour Meatballs","http://akc.verbbrands.com/recipes/evelyns-sweet-sour-meatballs","http://akc.verbbrands.com/wp-content/uploads/2007/08/Evelyns-meatballs-3.jpg"
"Eyeball Cupcakes","http://akc.verbbrands.com/recipes/eyeball-cupcakes","http://akc.verbbrands.com/wp-content/uploads/2007/09/eyeball-cupcakes-3.jpg"
"Fairy Broomsticks with Snow White & Red Rose Dips","http://akc.verbbrands.com/recipes/fairy-broomsticks-with-snow-white-red-rose-dips","http://akc.verbbrands.com/wp-content/uploads/2009/10/Fairy-Broomsticks-3.jpg"
"Family Cottage Pie","http://akc.verbbrands.com/recipes/family-cottage-pie","http://akc.verbbrands.com/wp-content/uploads/2007/08/Family-Cottage-Pie-3.jpg"
"Family Fish Pie","http://akc.verbbrands.com/recipes/family-fish-pie","http://akc.verbbrands.com/wp-content/uploads/2013/09/Mni-Fish-Pie-3.jpg"
"Father Christmas Cupcakes","http://akc.verbbrands.com/recipes/father-christmas-cupcakes","http://akc.verbbrands.com/wp-content/uploads/2008/12/Father-christmas-cupcakes-3.jpg"
"Fillet of Fish with Carrots & Orange","http://akc.verbbrands.com/recipes/fillet-of-fish-with-carrots-orange","http://akc.verbbrands.com/wp-content/uploads/2015/01/Fillet-of-Fish-with-Carrots-and-Orange-3.jpg"
"Fillets of Plaice Puree","http://akc.verbbrands.com/recipes/fillets-of-plaice-puree","http://akc.verbbrands.com/wp-content/uploads/2007/08/fillets-of-plaice-puree-3.jpg"
"First apple puree","http://akc.verbbrands.com/recipes/first-apple-puree","http://akc.verbbrands.com/wp-content/uploads/2013/06/Frist-Fruit-Apple-1-3.jpg"
"First Pear Puree","http://akc.verbbrands.com/recipes/first-pear-puree","http://akc.verbbrands.com/wp-content/uploads/2007/08/first_fuit_puree-3.jpg"
"First Veg Puree","http://akc.verbbrands.com/recipes/first-veg-puree","http://akc.verbbrands.com/wp-content/uploads/2008/06/first-vegetable-puree-3.jpg"
"Fish Pie","http://akc.verbbrands.com/recipes/fish-pie","http://akc.verbbrands.com/wp-content/uploads/2008/02/Mni-Fish-Pie-3.jpg"
"Flapjacks","http://akc.verbbrands.com/recipes/flapjacks","http://akc.verbbrands.com/wp-content/uploads/2009/10/Annabels-Oat-Bars-3.jpg"
"Flower Sandwiches","http://akc.verbbrands.com/recipes/flower-sandwiches","http://akc.verbbrands.com/wp-content/uploads/2015/04/Flower-Sandwiches-3.jpg"
"Football Boot Baguette","http://akc.verbbrands.com/recipes/football-boot-baguette","http://akc.verbbrands.com/wp-content/uploads/2010/06/FootballBootBaguette-3.jpg"
"French Toast with Berries","http://akc.verbbrands.com/recipes/french-toast-with-berries","http://akc.verbbrands.com/wp-content/uploads/2016/02/french-toast-with-berries-3.jpg"
"Fresh Cherry Frozen Yoghurt","http://akc.verbbrands.com/recipes/fresh-cherry-frozen-yoghurt","http://akc.verbbrands.com/wp-content/uploads/2009/07/Cherry-Frozen-Yoghurt-3.jpg"
"Frozen Berries","http://akc.verbbrands.com/recipes/frozen-berries","http://akc.verbbrands.com/wp-content/uploads/2010/03/Frozen-Berries-3.jpg"
"Frozen Berry Smoothie","http://akc.verbbrands.com/recipes/frozen-berry-smoothie","http://akc.verbbrands.com/wp-content/uploads/2016/02/frozen-berry-smoothie-3.jpg"
"Fruit Compote","http://akc.verbbrands.com/recipes/fruit-compote","http://akc.verbbrands.com/wp-content/uploads/2015/01/Fruit-Compote-1024x768-3.jpg"
"Fruit Tarts","http://akc.verbbrands.com/recipes/fruit-tarts","http://akc.verbbrands.com/wp-content/uploads/2010/02/Little-Fruit-Tarts-3.jpg"
"Fruity Chicken with Apricot Puree","http://akc.verbbrands.com/recipes/fruity-chicken-with-apricot-puree","http://akc.verbbrands.com/wp-content/uploads/2008/06/fruity-apricot-chicken-3.jpg"
"Funny Face Beef Burgers","http://akc.verbbrands.com/recipes/funny-face-beef-burgers","http://akc.verbbrands.com/wp-content/uploads/2009/04/Funny-Face-Burger-3.jpg"
"Garlic Pitta Breadsticks","http://akc.verbbrands.com/recipes/garlic-pitta-breadsticks","http://akc.verbbrands.com/wp-content/uploads/2015/06/Garlic-Pitta-Breadsticks-4.jpg"
"Gazpacho","http://akc.verbbrands.com/recipes/gazpacho","http://akc.verbbrands.com/wp-content/uploads/2012/06/gazpacho-3.jpg"
"Ghost Tortillas","http://akc.verbbrands.com/recipes/ghost-tortillas","http://akc.verbbrands.com/wp-content/uploads/2015/09/Ghost_Tortilla_Chips-3.jpg"
"Ghoulish Ghosts","http://akc.verbbrands.com/recipes/ghoulish-ghosts","http://akc.verbbrands.com/wp-content/uploads/2007/09/ghoulish-ghosts-3.jpg"
"Ginger & Spice Animal Cookies","http://akc.verbbrands.com/recipes/ginger-spice-animal-cookies","http://akc.verbbrands.com/wp-content/uploads/2015/07/Ginger-and-Spice-Animal-Cookies-3.jpg"
"Ginger Biscuits","http://akc.verbbrands.com/recipes/ginger-biscuits","http://akc.verbbrands.com/wp-content/uploads/2009/11/Ginger-biscuits-3.jpg"
"Ginger Cookies","http://akc.verbbrands.com/recipes/ginger-cookies","http://akc.verbbrands.com/wp-content/uploads/2009/04/Ginger-cookies-3.jpg"
"Ginger Star Biscuits","http://akc.verbbrands.com/recipes/ginger-star-biscuits","http://akc.verbbrands.com/wp-content/uploads/2007/11/Ginger-star-biscuits-3.jpg"
"Gingerbread Men","http://akc.verbbrands.com/recipes/gingerbread-men","http://akc.verbbrands.com/wp-content/uploads/2015/12/gingerbread-men-3.jpg"
"Gluten Free Brownies","http://akc.verbbrands.com/recipes/gluten-free-brownies","http://akc.verbbrands.com/wp-content/uploads/2008/01/GlutenFreeBrownies-3.jpg"
"Gluten Free Cake","http://akc.verbbrands.com/recipes/gluten-free-cake","http://akc.verbbrands.com/wp-content/uploads/2008/01/GlutenFreeCake-3.jpg"
"Gluten Free Cookies","http://akc.verbbrands.com/recipes/gluten-free-cookies","http://akc.verbbrands.com/wp-content/uploads/2008/01/GlutenFreeCookies-3.jpg"
"Green Slime Lemonade","http://akc.verbbrands.com/recipes/green-slime-lemonade","http://akc.verbbrands.com/wp-content/uploads/2008/10/green-lemonade-3.jpg"
"Grilled Chicken Breast Strips","http://akc.verbbrands.com/recipes/grilled-chicken-breast-strips","http://akc.verbbrands.com/wp-content/uploads/2008/06/grilled-chicken-strips-3.jpg"
"Grilled Lemon Sole with Herb Butter","http://akc.verbbrands.com/recipes/grilled-lemon-sole-with-herb-butter","http://akc.verbbrands.com/wp-content/uploads/2015/07/Grilled-Lemon-Sole-with-Herb-Butter-3.jpg"
"Grilled Vegetable Skewers","http://akc.verbbrands.com/recipes/grilled-vegetable-skewers","http://akc.verbbrands.com/wp-content/uploads/2009/03/Grilled-Vegetable-Skewers-3.jpg"
"Halloween Spider Cupcakes","http://akc.verbbrands.com/recipes/halloween-spider-cupcakes","http://akc.verbbrands.com/wp-content/uploads/2008/10/Spider-Cupcakes-3.jpg"
"Ham & Cheese Soufflé Omelette","http://akc.verbbrands.com/recipes/ham-cheese-souffle-omelette","http://akc.verbbrands.com/wp-content/uploads/2009/06/Ham-and-Cheese-Omelette-3.jpg"
"Healthier Hamburgers","http://akc.verbbrands.com/recipes/healthier-hamburgers","http://akc.verbbrands.com/wp-content/uploads/2007/08/Healthier-Hamburgers-3.jpg"
"Heart Lollipops","http://akc.verbbrands.com/recipes/heart-lollipops","http://akc.verbbrands.com/wp-content/uploads/2010/02/Heart-Lollipops-3.jpg"
"Heavenly Burgers","http://akc.verbbrands.com/recipes/heavenly-burgers","http://akc.verbbrands.com/wp-content/uploads/2015/08/Heavenly_Burgers-3.jpg"
"Hello Kitty Cupcakes","http://akc.verbbrands.com/recipes/hello-kitty-cupcakes","http://akc.verbbrands.com/wp-content/uploads/2016/06/Hello-Kitty-Cupcakes-3.jpg"
"Herby Chicken Nuggets with Spiralized Sweet Potato Curls","http://akc.verbbrands.com/recipes/herby-chicken-nuggets-with-spiralized-sweet-potato-curls","http://akc.verbbrands.com/wp-content/uploads/2015/06/Herby-Chicken-Nuggets-with-Spiralized-Sweet-Potato-Curls-3.jpg"
"Hidden Veg Smoothie","http://akc.verbbrands.com/recipes/hidden-veg-smoothie","http://akc.verbbrands.com/wp-content/uploads/2015/05/Hidden-Veg-Smoothie-3.jpg"
"Hidden Vegetable Sauce","http://akc.verbbrands.com/recipes/hidden-vegetable-sauce","http://akc.verbbrands.com/wp-content/uploads/2007/12/HiddenVegetableSauce-3.jpg"
"Honey Bee Cupcakes","http://akc.verbbrands.com/recipes/honey-bee-cupcakes","http://akc.verbbrands.com/wp-content/uploads/2015/03/HONEY_cupcake-3.jpg"
"Hot Cross Bunnies","http://akc.verbbrands.com/recipes/hot-cross-bunnies","http://akc.verbbrands.com/wp-content/uploads/2015/03/Hot-Cross-Bunnies-3.jpg"
"Hungarian Goulash","http://akc.verbbrands.com/recipes/hungarian-goulash","http://akc.verbbrands.com/wp-content/uploads/2016/01/hungarian-goulash-3.jpg"
"Hunny Bunny Pancakes","http://akc.verbbrands.com/recipes/hunny-bunny-pancakes","http://akc.verbbrands.com/wp-content/uploads/2015/02/Hunny-Bunny-Pancakes-3.jpg"
"Infused Waters","http://akc.verbbrands.com/recipes/infused-waters","http://akc.verbbrands.com/wp-content/uploads/2009/05/infused-waters-3.jpg"
"Jellies with Summer Fruits","http://akc.verbbrands.com/recipes/jellies-with-summer-fruits","http://akc.verbbrands.com/wp-content/uploads/2015/07/Jellies-with-Summer-Fruits-3.jpg"
"Jelly Boats","http://akc.verbbrands.com/recipes/jelly-boats","http://akc.verbbrands.com/wp-content/uploads/2007/08/JellyBoats-3.jpg"
"Jewelled Cupcakes","http://akc.verbbrands.com/recipes/jewelled-cupcakes","http://akc.verbbrands.com/wp-content/uploads/2009/10/JewelledCupcakes-3.jpg"
"Jewelled Pizzas","http://akc.verbbrands.com/recipes/jewelled-pizzas","http://akc.verbbrands.com/wp-content/uploads/2013/07/Jewelled-pizza-3.jpg"
"Kiddy Sushi Rolls","http://akc.verbbrands.com/recipes/kiddy-sushi-rolls","http://akc.verbbrands.com/wp-content/uploads/2014/01/Kiddy_Sushi_Rolls-3.jpg"
"Kids Chicken Curry","http://akc.verbbrands.com/recipes/kids-chicken-curry","http://akc.verbbrands.com/wp-content/uploads/2008/02/Kids-Chicken-Curry-3.jpg"
"Kids Fruity Chicken Curry","http://akc.verbbrands.com/recipes/kids-fruity-chicken-curry","http://akc.verbbrands.com/wp-content/uploads/2007/08/Fruity-Kids-Chicken-Curry-3.jpg"
"Kitten Cakes","http://akc.verbbrands.com/recipes/kitten-cakes","http://akc.verbbrands.com/wp-content/uploads/2007/08/Kitten-3.jpg"
"Krispie Chicken Nuggets","http://akc.verbbrands.com/recipes/krispie-chicken-nuggets","http://akc.verbbrands.com/wp-content/uploads/2007/08/Quick-Chicken-Nuggets_1-3.jpg"
"Krispie Fish Fingers","http://akc.verbbrands.com/recipes/krispie-fish-fingers","http://akc.verbbrands.com/wp-content/uploads/2010/04/Krispie-Fish-Fingers-2-3.jpg"
"Layered New Potato Salad with Bacon","http://akc.verbbrands.com/recipes/layered-new-potato-salad-with-bacon","http://akc.verbbrands.com/wp-content/uploads/2015/06/Layered-New-Potato-Salad-with-Bacon-3.jpg"
"Leg of Lamb with Rosemary Roast Potatoes","http://akc.verbbrands.com/recipes/leg-of-lamb-with-rosemary-roast-potatoes","http://akc.verbbrands.com/wp-content/uploads/2010/03/Roast-Lamb-3.jpg"
"Lemon Cheesecake","http://akc.verbbrands.com/recipes/lemon-cheesecake","http://akc.verbbrands.com/wp-content/uploads/2008/06/Lemon-Cheesecake-3.jpg"
"Lemon Sole with Squash, Kale & Peas","http://akc.verbbrands.com/recipes/lemon-sole-with-squash-kale-peas","http://akc.verbbrands.com/wp-content/uploads/2015/07/sole-kale-squash-3.jpg"
"Lentil Puree","http://akc.verbbrands.com/recipes/lentil-puree","http://akc.verbbrands.com/wp-content/uploads/2013/08/Lentil-puree-3.jpg"
"Lettuce Boats","http://akc.verbbrands.com/recipes/lettuce-boats","http://akc.verbbrands.com/wp-content/uploads/2007/10/LettuceBoats-3.jpg"
"Lettuce Boats with Marinated Steak & Crunchy Vegetables","http://akc.verbbrands.com/recipes/lettuce-boats-with-marinated-steak-crunchy-vegetables","http://akc.verbbrands.com/wp-content/uploads/2015/05/Fried_Steak_with_Crunchy_Vegetables-3.jpg"
"Linguini with Clams","http://akc.verbbrands.com/recipes/linguini-with-clams","http://akc.verbbrands.com/wp-content/uploads/2014/10/Linguini-with-Clams-3.jpg"
"Little Chick Cupcakes","http://akc.verbbrands.com/recipes/little-chick-cupcakes","http://akc.verbbrands.com/wp-content/uploads/2009/04/LittleChickCupcakes-3.jpg"
"Lovely Lentils","http://akc.verbbrands.com/recipes/lovely-lentils","http://akc.verbbrands.com/wp-content/uploads/2007/08/lovelylentils-3.jpg"
"Lovely Rice Pudding","http://akc.verbbrands.com/recipes/lovely-rice-pudding","http://akc.verbbrands.com/wp-content/uploads/2007/08/StrawberryRicePudding-3.jpg"
"Lunch on a Stick","http://akc.verbbrands.com/recipes/lunch-on-a-stick","http://akc.verbbrands.com/wp-content/uploads/2007/08/Lunch-on-a-stick-3.jpg"
"Lychee Frozen Yoghurt","http://akc.verbbrands.com/recipes/lychee-frozen-yoghurt","http://akc.verbbrands.com/wp-content/uploads/2009/07/Frozen-lychee-yoghurt-3.jpg"
"Macaroni & Cauli Cheese","http://akc.verbbrands.com/recipes/macaroni-cauli-cheese","http://akc.verbbrands.com/wp-content/uploads/2009/01/Macaroni-Cauli-Cheese-3.jpg"
"Malted Chocolate Ice Cream","http://akc.verbbrands.com/recipes/malted-chocolate-ice-cream","http://akc.verbbrands.com/wp-content/uploads/2010/04/Malted-Chocolate-Ice-Cream-3.jpg"
"Mandarin & Peach Ice Lollies","http://akc.verbbrands.com/recipes/mandarin-peach-ice-lollies","http://akc.verbbrands.com/wp-content/uploads/2013/06/Mandarin-and-Peach-Ice-Lollies-3.jpg"
"Marshmallow Sheep Cupcakes","http://akc.verbbrands.com/recipes/marshmallow-sheep-cupcakes","http://akc.verbbrands.com/wp-content/uploads/2008/02/MarshmellowSheep-3.jpg"
"Mashed Sweet Potato & Broccoli","http://akc.verbbrands.com/recipes/mashed-sweet-potato-broccoli","http://akc.verbbrands.com/wp-content/uploads/2008/06/two-potato-mash-with-broccoli-3.jpg"
"Meatball Pasta Bake","http://akc.verbbrands.com/recipes/meatball-pasta-bake","http://akc.verbbrands.com/wp-content/uploads/2015/05/MEATBALL-PASTA-BAKE-3.jpg"
"Meatball Pasta Bake","http://akc.verbbrands.com/recipes/meatball-pasta-bake-2","http://akc.verbbrands.com/wp-content/uploads/2015/04/Pasta-Meatball-Bake-3.jpg"
"Meatballs with BBQ Sauce","http://akc.verbbrands.com/recipes/meatballs-with-bbq-sauce","http://akc.verbbrands.com/wp-content/uploads/2016/06/39822933MeatballsBBQSauceWorkLres-3.jpg"
"Meatloaf Mummy","http://akc.verbbrands.com/recipes/meatloaf-mummy","http://akc.verbbrands.com/wp-content/uploads/2015/10/Mummy_Meatloaf-3.jpg"
"Mediterranean Vegetable Puree","http://akc.verbbrands.com/recipes/mediterranean-vegetable-puree","http://akc.verbbrands.com/wp-content/uploads/2015/01/Mediterranean-Vegetable-Puree-Recipe-3.jpg"
"Melon Brain","http://akc.verbbrands.com/recipes/melon-brain","http://akc.verbbrands.com/wp-content/uploads/2010/08/Melon-brain-3.jpg"
"Melon Flowers","http://akc.verbbrands.com/recipes/melon-flowers","http://akc.verbbrands.com/wp-content/uploads/2015/04/Melon-Flowers-3.jpg"
"Melting Witch Cupcakes","http://akc.verbbrands.com/recipes/melting-witch-cupcakes","http://akc.verbbrands.com/wp-content/uploads/2015/10/Melting_Witch_Lemon_Cupcakes-3.jpg"
"Meringue Bones","http://akc.verbbrands.com/recipes/meringue-bones","http://akc.verbbrands.com/wp-content/uploads/2015/10/Meringue_Bones-3.jpg"
"Mexican Chicken Stuffed Baked Potato","http://akc.verbbrands.com/recipes/mexican-chicken-stuffed-baked-potato","http://akc.verbbrands.com/wp-content/uploads/2010/10/Mexican-chicken-baked-potato-3.jpg"
"Mighty Macaroni & Cheese","http://akc.verbbrands.com/recipes/mighty-macaroni-cheese","http://akc.verbbrands.com/wp-content/uploads/2007/08/Mighty-macaroni-cheese-3.jpg"
"Mild Prawn Curry","http://akc.verbbrands.com/recipes/mild-prawn-curry","http://akc.verbbrands.com/wp-content/uploads/2009/01/Mild-Prawn-Curry-3.jpg"
"Mince Pies","http://akc.verbbrands.com/recipes/mince-pies","http://akc.verbbrands.com/wp-content/uploads/2015/12/mince-pies-3.jpg"
"Minced Beef with Kale & Butternut Squash","http://akc.verbbrands.com/recipes/minced-beef-with-kale-butternut-squash","http://akc.verbbrands.com/wp-content/uploads/2016/06/Beef-with-Kale-and-Butternut-Squash-3.jpg"
"Minestrone Soup","http://akc.verbbrands.com/recipes/minestrone-soup","http://akc.verbbrands.com/wp-content/uploads/2007/10/Minestrone-3.jpg"
"Mini Cheese & Tomato Tartlets","http://akc.verbbrands.com/recipes/mini-cheese-tomato-tartlets","http://akc.verbbrands.com/wp-content/uploads/2016/02/mini-cheese-and-tomato-tartlets-3.jpg"
"Mini Chicken & Potato Pies","http://akc.verbbrands.com/recipes/mini-chicken-potato-pies","http://akc.verbbrands.com/wp-content/uploads/2008/06/Mini-chicken-and-potato-pie-3.jpg"
"Mini Chicken Balls","http://akc.verbbrands.com/recipes/mini-chicken-balls","http://akc.verbbrands.com/wp-content/uploads/2015/07/Mini_Chicken_Balls-3.jpg"
"Mini Chicken Balls with Apple & Carrot","http://akc.verbbrands.com/recipes/mini-chicken-balls-with-apple-carrot","http://akc.verbbrands.com/wp-content/uploads/2015/04/Mini_Chicken_Balls-3.jpg"
"Mini Chicken Burgers","http://akc.verbbrands.com/recipes/mini-chicken-burgers","http://akc.verbbrands.com/wp-content/uploads/2015/01/Mini-Chicken-Burgers-1024x768-3.jpg"
"Mini Chicken Skewers with Noodle Stir Fry","http://akc.verbbrands.com/recipes/mini-chicken-skewers-with-noodle-stir-fry","http://akc.verbbrands.com/wp-content/uploads/2015/05/Mini_Chicken_Skewers_with_Noodle_Stir_Fry-3.jpg"
"Mini Chicken Skewers with Noodle Stir Fry","http://akc.verbbrands.com/recipes/mini-chicken-skewers-with-noodle-stir-fry-2","http://akc.verbbrands.com/wp-content/uploads/2015/05/Mini-Chicken-Skewers-with-Noodle-Stir-Fry-3.jpg"
"Mini Christmas Puddings","http://akc.verbbrands.com/recipes/mini-christmas-puddings","http://akc.verbbrands.com/wp-content/uploads/2015/07/Mini_Christmas_Puddings-3.jpg"
"Mini Christmas Puddings","http://akc.verbbrands.com/recipes/mini-christmas-puddings-2","http://akc.verbbrands.com/wp-content/uploads/2010/11/Mini-christmas-puddings-3.jpg"
"Mini Cottage Pie","http://akc.verbbrands.com/recipes/mini-cottage-pie","http://akc.verbbrands.com/wp-content/uploads/2015/10/Mini_Cottage_Pies-3.jpg"
"Mini Cottage Pie","http://akc.verbbrands.com/recipes/mini-cottage-pie-2","http://akc.verbbrands.com/wp-content/uploads/2015/07/Mini_Cottage_Pie-3.jpg"
"Mini Cottage Pie","http://akc.verbbrands.com/recipes/mini-cottage-pie-3","http://akc.verbbrands.com/wp-content/uploads/2008/02/Mini-cottage-pie-3.jpg"
"Mini Crown Cupcakes","http://akc.verbbrands.com/recipes/mini-crown-cupcakes","http://akc.verbbrands.com/wp-content/uploads/2015/04/Mini_Crown_Cupcakes-3.jpg"
"Mini Fish Pies","http://akc.verbbrands.com/recipes/mini-fish-pies-3","http://akc.verbbrands.com/wp-content/uploads/2015/06/Mini-Fish-Pies-3.jpg"
"Mini Fish Pies","http://akc.verbbrands.com/recipes/mini-fish-pies-2","http://akc.verbbrands.com/wp-content/uploads/2015/07/Mini_Fish_Pies-1-3.jpg"
"Mini Fish Pies","http://akc.verbbrands.com/recipes/mini-fish-pies","http://akc.verbbrands.com/wp-content/uploads/2015/07/Mini_Fish_Pies-4.jpg"
"Mini Hot Dog Christmas Wreath","http://akc.verbbrands.com/recipes/mini-hot-dog-christmas-wreath","http://akc.verbbrands.com/wp-content/uploads/2013/12/Christmas-Sausage-Wreath-3.jpg"
"Mini Lemon Cheesecakes","http://akc.verbbrands.com/recipes/mini-lemon-cheesecakes","http://akc.verbbrands.com/wp-content/uploads/2015/07/Mini_Lemon_Cheesecakes-3.jpg"
"Mini Meatballs","http://akc.verbbrands.com/recipes/mini-meatballs","http://akc.verbbrands.com/wp-content/uploads/2015/07/Mini_Meatballs-3.jpg"
"Mini Meatballs","http://akc.verbbrands.com/recipes/mini-meatballs-2","http://akc.verbbrands.com/wp-content/uploads/2009/03/Mini-Meatballs-3.jpg"
"Mini Meringues","http://akc.verbbrands.com/recipes/mini-meringues","http://akc.verbbrands.com/wp-content/uploads/2015/07/Mini_Meringues-3.jpg"
"Mini Muffin Mice","http://akc.verbbrands.com/recipes/mini-muffin-mice","http://akc.verbbrands.com/wp-content/uploads/2015/07/Mini_Muffin_Mice-3.jpg"
"Mini Pizza","http://akc.verbbrands.com/recipes/mini-pizza","http://akc.verbbrands.com/wp-content/uploads/2008/01/MiniPizzasVeg-3.jpg"
"Mini Pizzas","http://akc.verbbrands.com/recipes/mini-pizzas","http://akc.verbbrands.com/wp-content/uploads/2015/07/Mini_Pizzas-3.jpg"
"Mini Polenta Pizzas","http://akc.verbbrands.com/recipes/mini-polenta-pizzas","http://akc.verbbrands.com/wp-content/uploads/2013/05/MiniPolentaPizzas-3.jpg"
"Mini Stollen","http://akc.verbbrands.com/recipes/mini-stollen","http://akc.verbbrands.com/wp-content/uploads/2013/12/Stollen-3.jpg"
"Minty Lamb Koftas","http://akc.verbbrands.com/recipes/minty-lamb-koftas","http://akc.verbbrands.com/wp-content/uploads/2009/12/Lamb-Koftas-3.jpg"
"Minute Steak & Sweet Potato Wedges","http://akc.verbbrands.com/recipes/minute-steak-sweet-potato-wedges","http://akc.verbbrands.com/wp-content/uploads/2015/07/Minute_Steak_Sweet_Potato_Wedges-3.jpg"
"Minute Steaks with Tomatoes","http://akc.verbbrands.com/recipes/minute-steaks-with-tomatoes","http://akc.verbbrands.com/wp-content/uploads/2015/05/Minute-Steak-with-Tomatoes-3.jpg"
"Miso Salmon with Stir Fry Vegetables","http://akc.verbbrands.com/recipes/miso-salmon-with-stir-fry-vegetables","http://akc.verbbrands.com/wp-content/uploads/2015/05/Miso-Salmon-with-Stir-Fried-Vegetables-3.jpg"
"Monster Muffins","http://akc.verbbrands.com/recipes/monster-muffins-2","http://akc.verbbrands.com/wp-content/uploads/2015/07/Monster_Muffins-3.jpg"
"Monster Muffins","http://akc.verbbrands.com/recipes/monster-muffins","http://akc.verbbrands.com/wp-content/uploads/2015/09/Monster_Muffins-3.jpg"
"Moroccan Lamb Tagine","http://akc.verbbrands.com/recipes/moroccan-lamb-tagine","http://akc.verbbrands.com/wp-content/uploads/2015/06/Moroccan-Lamb-Tagine-3.jpg"
"Moroccan Lamb with Couscous","http://akc.verbbrands.com/recipes/moroccan-lamb-with-couscous","http://akc.verbbrands.com/wp-content/uploads/2009/10/Moroccan-lamb-3.jpg"
"Moroccan Meatballs","http://akc.verbbrands.com/recipes/moroccan-meatballs","http://akc.verbbrands.com/wp-content/uploads/2015/07/Moroccan_Meatballs-3.jpg"
"Mozzarella, Pesto & Tomato Paninis","http://akc.verbbrands.com/recipes/mozzarella-pesto-tomato-paninis","http://akc.verbbrands.com/wp-content/uploads/2015/05/Paninis-3.jpg"
"Mulligatawny Chicken Curry","http://akc.verbbrands.com/recipes/mulligatawny-chicken-curry","http://akc.verbbrands.com/wp-content/uploads/2015/06/Mulligatawny-Chicken-Curry-3.jpg"
"Multi Layered Cottage Pie","http://akc.verbbrands.com/recipes/multi-layered-cottage-pie","http://akc.verbbrands.com/wp-content/uploads/2015/06/Multi-Layered-Cottage-Pie-3.jpg"
"Multicoloured Meringues","http://akc.verbbrands.com/recipes/multicoloured-meringues","http://akc.verbbrands.com/wp-content/uploads/2015/07/Multicoloured_Meringues-3.jpg"
"Mummy Meatloaf","http://akc.verbbrands.com/recipes/mummy-meatloaf","http://akc.verbbrands.com/wp-content/uploads/2015/07/Mummy_Meatloaf-3.jpg"
"Mummy Muffins","http://akc.verbbrands.com/recipes/mummy-muffins","http://akc.verbbrands.com/wp-content/uploads/2013/09/mummy-muffins-3.jpg"
"Mummy's Muesli","http://akc.verbbrands.com/recipes/mummys-muesli","http://akc.verbbrands.com/wp-content/uploads/2016/02/mummys-muesli-3.jpg"
"Mummy's Pot Noodle","http://akc.verbbrands.com/recipes/mummys-pot-noodle","http://akc.verbbrands.com/wp-content/uploads/2007/08/Mummys-Pot-Noodle-3.jpg"
"Mushrooms & Spinach Pasta","http://akc.verbbrands.com/recipes/mushrooms-spinach-pasta","http://akc.verbbrands.com/wp-content/uploads/2015/07/Mushrooms_and_Spinach_Pasta-3.jpg"
"My Favourite Christmas Cake","http://akc.verbbrands.com/recipes/my-favourite-christmas-cake","http://akc.verbbrands.com/wp-content/uploads/2015/07/My_Favourite_Christmas_Cake-3.jpg"
"My Favourite Fritatta","http://akc.verbbrands.com/recipes/my-favourite-fritatta","http://akc.verbbrands.com/wp-content/uploads/2016/02/my-favourite-fritatta-3.jpg"
"My Favourite Ginger Biscuits","http://akc.verbbrands.com/recipes/my-favourite-ginger-biscuits","http://akc.verbbrands.com/wp-content/uploads/2015/07/Ginger_Biscuits-3.jpg"
"My Favourite Porridge","http://akc.verbbrands.com/recipes/my-favourite-porridge","http://akc.verbbrands.com/wp-content/uploads/2007/08/my_favourite_porridge-3.jpg"
"My First Beef Bolognese","http://akc.verbbrands.com/recipes/my-first-beef-bolognese","http://akc.verbbrands.com/wp-content/uploads/2014/08/My-First-Bolognese-3.jpg"
"My First Chicken Curry","http://akc.verbbrands.com/recipes/my-first-chicken-curry","http://akc.verbbrands.com/wp-content/uploads/2015/12/my-first-curry-3.jpg"
"Naan Bread with Sultanas","http://akc.verbbrands.com/recipes/naan-bread-with-sultanas","http://akc.verbbrands.com/wp-content/uploads/2015/07/Naan_Bread_with_Sultanas-3.jpg"
"Nasi Goreng","http://akc.verbbrands.com/recipes/nasi-goreng","http://akc.verbbrands.com/wp-content/uploads/2015/06/Nasi-Goring-3.jpg"
"Nectarine & Apple","http://akc.verbbrands.com/recipes/nectarine-apple","http://akc.verbbrands.com/wp-content/uploads/2015/07/Nectarine_and_Apple-3.jpg"
"New Style Fish & Chips","http://akc.verbbrands.com/recipes/new-style-fish-chips","http://akc.verbbrands.com/wp-content/uploads/2015/07/New_Style_Fish_and_Chips-3.jpg"
"No Bake Train Cake","http://akc.verbbrands.com/recipes/no-bake-train-cake","http://akc.verbbrands.com/wp-content/uploads/2007/08/No-Bake-Train-Cake-3.jpg"
"No Cook Purees","http://akc.verbbrands.com/recipes/no-cook-purees","http://akc.verbbrands.com/wp-content/uploads/2013/06/papaya_nocook-3.jpg"
"Oat & Raisin Cookies","http://akc.verbbrands.com/recipes/oat-raisin-cookies","http://akc.verbbrands.com/wp-content/uploads/2007/08/Oat-and-Raisin-Cookies-3.jpg"
"One Pot Chicken With Spring Vegetables","http://akc.verbbrands.com/recipes/one-pot-chicken-with-spring-vegetables-2","http://akc.verbbrands.com/wp-content/uploads/2015/02/One-Pot-Chicken-3.jpg"
"One-Pot Chicken with Spring Vegetables","http://akc.verbbrands.com/recipes/one-pot-chicken-with-spring-vegetables","http://akc.verbbrands.com/wp-content/uploads/2016/02/one-pot-chicken-3.jpg"
"Onion & Gruyere Tart","http://akc.verbbrands.com/recipes/onion-gruyere-tart","http://akc.verbbrands.com/wp-content/uploads/2015/06/Onion-and-Gruyere-Tart-3.jpg"
"Onion & Gruyere Tart","http://akc.verbbrands.com/recipes/onion-gruyere-tart-2","http://akc.verbbrands.com/wp-content/uploads/2015/06/ONION_AND_GRUYERE_TART-3.jpg"
"Oriental Chicken Balls","http://akc.verbbrands.com/recipes/oriental-chicken-balls","http://akc.verbbrands.com/wp-content/uploads/2015/06/Oriental-Chicken-Balls-3.jpg"
"Pad Thai","http://akc.verbbrands.com/recipes/pad-thai","http://akc.verbbrands.com/wp-content/uploads/2010/05/Pad-Thai-3.jpg"
"Pan Bagnat","http://akc.verbbrands.com/recipes/pan-bagnat","http://akc.verbbrands.com/wp-content/uploads/2010/04/Pan-Bagnat-3.jpg"
"Pancakes with Strawberries & Toffee Sauce","http://akc.verbbrands.com/recipes/pancakes-with-strawberries-toffee-sauce","http://akc.verbbrands.com/wp-content/uploads/2016/01/pancakes-with-strawberries-and-toffee-sauce-3.jpg"
"Pancakes with Strawberries & Toffee Sauce","http://akc.verbbrands.com/recipes/pancakes-with-strawberries-toffee-sauce-2","http://akc.verbbrands.com/wp-content/uploads/2009/01/PancakesStrawberryAndToffee-3.jpg"
"Papaya Puree","http://akc.verbbrands.com/recipes/papaya-puree","http://akc.verbbrands.com/wp-content/uploads/2007/08/Papaya-Puree-3.jpg"
"Parsnip, Pear & Carrot","http://akc.verbbrands.com/recipes/parsnip-pear-carrot","http://akc.verbbrands.com/wp-content/uploads/2015/07/Parsnip_Pear_Carrot-3.jpg"
"Parsnip, Spinach & Sweet Potato","http://akc.verbbrands.com/recipes/parsnip-spinach-sweet-potato","http://akc.verbbrands.com/wp-content/uploads/2016/04/parsnip-spinach-sweetpotato-3.jpg"
"Pasta Fusilli with Salmon","http://akc.verbbrands.com/recipes/pasta-fusilli-with-salmon","http://akc.verbbrands.com/wp-content/uploads/2010/05/Fusilli-with-salmon-3.jpg"
"Pasta Meatball Bake","http://akc.verbbrands.com/recipes/pasta-meatball-bake","http://akc.verbbrands.com/wp-content/uploads/2015/06/Pasta_Meatball_Bake-3.jpg"
"Pasta Risotto","http://akc.verbbrands.com/recipes/pasta-risotto","http://akc.verbbrands.com/wp-content/uploads/2015/07/Pasta_Risotto-3.jpg"
"Pasta Shells with Butternut Squash","http://akc.verbbrands.com/recipes/pasta-shells-with-butternut-squash","http://akc.verbbrands.com/wp-content/uploads/2015/07/Pasta_shells_with_butternut_squash-3.jpg"
"Pasta Stars with Veggie Sauce","http://akc.verbbrands.com/recipes/pasta-stars-with-veggie-sauce","http://akc.verbbrands.com/wp-content/uploads/2009/02/Veggie-Pasta-Stars-3.jpg"
"Pasta with Tomato, Sweet Potato & Cheese","http://akc.verbbrands.com/recipes/pasta-with-tomato-sweet-potato-cheese","http://akc.verbbrands.com/wp-content/uploads/2008/06/PotatoCheeseTomato-3.jpg"
"Pasta, Pesto & Chicken Salad","http://akc.verbbrands.com/recipes/pasta-pesto-chicken-salad","http://akc.verbbrands.com/wp-content/uploads/2015/05/Pasta-Pesto-Chicken-Salad-3.jpg"
"Pastrami, Dill Pickle & Tomato Wrap","http://akc.verbbrands.com/recipes/pastrami-dill-pickle-tomato-wrap","http://akc.verbbrands.com/wp-content/uploads/2015/05/Pastrami-Dill-Pickle-and-Tomato-Wrap-3.jpg"
"Pastrami, Dill Pickle & Tomato Wrap","http://akc.verbbrands.com/recipes/pastrami-dill-pickle-tomato-wrap-2","http://akc.verbbrands.com/wp-content/uploads/2015/01/Pastrami-Dill-Pickle-and-Tomato-Wrap-3.jpg"
"Peach & Summer Berry Fruit Salad","http://akc.verbbrands.com/recipes/peach-summer-berry-fruit-salad","http://akc.verbbrands.com/wp-content/uploads/2015/05/Peach-and-Summer-Berry-Fruit-Salad-3.jpg"
"Peach Melba Ice Lolly & Watermelon Cooler","http://akc.verbbrands.com/recipes/peach-melba-ice-lolly-watermelon-cooler","http://akc.verbbrands.com/wp-content/uploads/2015/07/PEACH_MELBA_ICE_LOLLY__WATERMELON_COOLER-3.jpg"
"Peach Puree","http://akc.verbbrands.com/recipes/peach-puree","http://akc.verbbrands.com/wp-content/uploads/2015/07/Peach_Puree-3.jpg"
"Peach, Apple & Strawberry","http://akc.verbbrands.com/recipes/peach-apple-strawberry","http://akc.verbbrands.com/wp-content/uploads/2016/04/Strawberry-apple-peach-3.jpg"
"Peach, Apple & Strawberry Puree","http://akc.verbbrands.com/recipes/peach-apple-strawberry-puree","http://akc.verbbrands.com/wp-content/uploads/2015/07/Peach_Apple_Strawberry_Puree-3.jpg"
"Peach, Apple, Apricot & Pear Puree","http://akc.verbbrands.com/recipes/peach-apple-apricot-pear-puree","http://akc.verbbrands.com/wp-content/uploads/2015/07/Peach_Apple_Apricot_Pear_Puree-3.jpg"
"Peach, Pear & Blueberry Puree","http://akc.verbbrands.com/recipes/peach-pear-blueberry-puree","http://akc.verbbrands.com/wp-content/uploads/2008/06/blueberry-pear-puree-3.jpg"
"Peach, Raspberry & Apple Crumble","http://akc.verbbrands.com/recipes/peach-raspberry-apple-crumble","http://akc.verbbrands.com/wp-content/uploads/2015/05/Peach-Raspberry-and-Apple-Crumble-3.jpg"
"Peanut Butter Bears","http://akc.verbbrands.com/recipes/peanut-butter-bears","http://akc.verbbrands.com/wp-content/uploads/2015/07/Peanut_Butter_Bears-3.jpg"
"Pear Puree","http://akc.verbbrands.com/recipes/pear-puree","http://akc.verbbrands.com/wp-content/uploads/2015/07/Pear_Puree-3.jpg"
"Penne Pasta with Aubergine & Mozzarella","http://akc.verbbrands.com/recipes/penne-pasta-with-aubergine-mozzarella-2","http://akc.verbbrands.com/wp-content/uploads/2015/06/Penne-Pasta-with-Aubergine-and-Mozzarella-3.jpg"
"Penne Pasta with Aubergine & Mozzarella","http://akc.verbbrands.com/recipes/penne-pasta-with-aubergine-mozzarella","http://akc.verbbrands.com/wp-content/uploads/2016/01/penne-pasta-with-aubergine-and-mozarella-3.jpg"
"Peppermint & Rose Kisses","http://akc.verbbrands.com/recipes/peppermint-rose-kisses-2","http://akc.verbbrands.com/wp-content/uploads/2015/07/Peppermint_and_Rose_Kisses-3.jpg"
"Peppermint & Rose Kisses","http://akc.verbbrands.com/recipes/peppermint-rose-kisses","http://akc.verbbrands.com/wp-content/uploads/2015/12/peppermints-3.jpg"
"Perfect Lemon Polenta Cake","http://akc.verbbrands.com/recipes/perfect-lemon-polenta-cake","http://akc.verbbrands.com/wp-content/uploads/2015/07/Perfect_Lemon_Polenta_Cake-3.jpg"
"Perfect Paella","http://akc.verbbrands.com/recipes/perfect-paella","http://akc.verbbrands.com/wp-content/uploads/2015/06/Annabels-Paella-3.jpg"
"Pesto Rice Salad","http://akc.verbbrands.com/recipes/pesto-rice-salad","http://akc.verbbrands.com/wp-content/uploads/2016/04/pesto-rice-salad-website-3.jpg"
"Pig Watermelon","http://akc.verbbrands.com/recipes/pig-watermelon","http://akc.verbbrands.com/wp-content/uploads/2015/07/Pig_Watermelon-3.jpg"
"Pineapple-Melon Flowers","http://akc.verbbrands.com/recipes/pineapple-melon-flowers","http://akc.verbbrands.com/wp-content/uploads/2015/01/Pineapple_and_Melon_Flowers-3.jpg"
"Pink Piggy Cupcakes","http://akc.verbbrands.com/recipes/pink-piggy-cupcakes","http://akc.verbbrands.com/wp-content/uploads/2015/07/Pink_Piggy_Cupcakes-3.jpg"
"Pirate Ship","http://akc.verbbrands.com/recipes/pirate-ship","http://akc.verbbrands.com/wp-content/uploads/2015/07/Pirate_ship-3.jpg"
"Pirate Ship Cake","http://akc.verbbrands.com/recipes/pirate-ship-cake","http://akc.verbbrands.com/wp-content/uploads/2013/03/Pirate-Ship-Cake-3.jpg"
"Plaice, Leek & Sweet Potato","http://akc.verbbrands.com/recipes/plaice-leek-sweet-potato","http://akc.verbbrands.com/wp-content/uploads/2015/07/Plaice_Leek_Sweet_Potato-3.jpg"
"Plum and Almond Cake","http://akc.verbbrands.com/recipes/plum-and-almond-cake","http://akc.verbbrands.com/wp-content/uploads/2015/06/Plum-and-Almond-Cake-3.jpg"
"Pop Cake Chicks","http://akc.verbbrands.com/recipes/pop-cake-chicks","http://akc.verbbrands.com/wp-content/uploads/2016/03/pop-cake-chicks-3.jpg"
"Popeye Pasta","http://akc.verbbrands.com/recipes/popeye-pasta","http://akc.verbbrands.com/wp-content/uploads/2008/06/Popeye-pasta-3.jpg"
"Pork Stir-Fry with Sugar Snap Peas","http://akc.verbbrands.com/recipes/pork-stir-fry-with-sugar-snap-peas","http://akc.verbbrands.com/wp-content/uploads/2015/05/Pork-Stir-Fry-3.jpg"
"Pork Tenderloin with Apple Sauce","http://akc.verbbrands.com/recipes/pork-tenderloin-with-apple-sauce","http://akc.verbbrands.com/wp-content/uploads/2015/08/Pork_Tenderloin_with_Apple_Sauce-3.jpg"
"Porridge with Apple, Pear & Apricot","http://akc.verbbrands.com/recipes/porridge-with-apple-pear-apricot","http://akc.verbbrands.com/wp-content/uploads/2016/07/porridge_apple_pear_apricot-Euromark-3.jpg"
"Porridge with Apple, Pear & Raisins","http://akc.verbbrands.com/recipes/porridge-with-apple-pear-raisins","http://akc.verbbrands.com/wp-content/uploads/2015/07/Porridge_with_Apple_Pear_Raisins-3.jpg"
"Porridge with Apricot & Banana","http://akc.verbbrands.com/recipes/porridge-with-apricot-banana","http://akc.verbbrands.com/wp-content/uploads/2013/08/Porridge-with-apricots-3.jpg"
"Porridge with Peach & Apple","http://akc.verbbrands.com/recipes/porridge-with-peach-apple","http://akc.verbbrands.com/wp-content/uploads/2015/07/Porridge-3.jpg"
"Potato & Chicken Rösti","http://akc.verbbrands.com/recipes/potato-chicken-rosti","http://akc.verbbrands.com/wp-content/uploads/2015/06/Potato-Chicken-Rosti-3.jpg"
"Potato Soufflé","http://akc.verbbrands.com/recipes/potato-souffle","http://akc.verbbrands.com/wp-content/uploads/2013/05/Potato-Souffle-3.jpg"
"Potato, Carrot & Sweetcorn Purée","http://akc.verbbrands.com/recipes/potato-carrot-sweetcorn-puree","http://akc.verbbrands.com/wp-content/uploads/2009/10/Potato-Carrot-and-Sweetcorn-Puree-3.jpg"
"Potato, Leek & Pea Puree","http://akc.verbbrands.com/recipes/potato-leek-pea-puree","http://akc.verbbrands.com/wp-content/uploads/2015/07/Potato_Leek_Pea_Puree-3.jpg"
"Power Packed Oat Bars","http://akc.verbbrands.com/recipes/power-packed-oat-bars","http://akc.verbbrands.com/wp-content/uploads/2008/06/Power-Packed-Oat-Bars-3.jpg"
"Prawn & Watercress Sandwiches","http://akc.verbbrands.com/recipes/prawn-watercress-sandwiches","http://akc.verbbrands.com/wp-content/uploads/2007/08/Prawn-and-Watercress-Sandwich-3.jpg"
"Prawn Pasta Salad","http://akc.verbbrands.com/recipes/prawn-pasta-salad","http://akc.verbbrands.com/wp-content/uploads/2010/07/Prawn-Pasta-Salad-3.jpg"
"Prawn Stir Fry with Rice Noodles","http://akc.verbbrands.com/recipes/prawn-stir-fry-with-rice-noodles","http://akc.verbbrands.com/wp-content/uploads/2015/07/Prawn_Stir_Fry_with_Rice_Noodles-3.jpg"
"Princess Cookies","http://akc.verbbrands.com/recipes/princess-cookies","http://akc.verbbrands.com/wp-content/uploads/2013/07/Princess-Cookies-3.jpg"
"Puff Pastry Pizzas","http://akc.verbbrands.com/recipes/puff-pastry-pizzas","http://akc.verbbrands.com/wp-content/uploads/2015/06/Puff_Pastry_Pizza-3.jpg"
"Pumpkin & Sweet Potato Soup with Cheesy Croutons","http://akc.verbbrands.com/recipes/pumpkin-sweet-potato-soup-with-cheesy-croutons","http://akc.verbbrands.com/wp-content/uploads/2015/10/5.22_Sweet_Potato_and_Butternut_Squash_Soup-3.jpg"
"Pumpkin Gnocchi with Butter & Sage Sauce","http://akc.verbbrands.com/recipes/pumpkin-gnocchi-with-butter-sage-sauce","http://akc.verbbrands.com/wp-content/uploads/2009/10/Pumpkin-Gnocchi-3.jpg"
"Pumpkin Muffins","http://akc.verbbrands.com/recipes/pumpkin-muffins","http://akc.verbbrands.com/wp-content/uploads/2013/08/Pumpkin-muffins-3.jpg"
"Pumpkin Oranges","http://akc.verbbrands.com/recipes/pumpkin-oranges","http://akc.verbbrands.com/wp-content/uploads/2010/08/Pumpkin-orange-3.jpg"
"Pumpkin Puree","http://akc.verbbrands.com/recipes/pumpkin-puree","http://akc.verbbrands.com/wp-content/uploads/2013/09/Pumpkin_puree-3.jpg"
"Puppy Dog Cupcakes","http://akc.verbbrands.com/recipes/puppy-dog-cupcakes","http://akc.verbbrands.com/wp-content/uploads/2015/07/Puppy_Dog_Cupcakes-3.jpg"
"Quinoa & Edamame Salad with Honey & Ginger Dressing","http://akc.verbbrands.com/recipes/quinoa-edamame-salad-with-honey-ginger-dressing","http://akc.verbbrands.com/wp-content/uploads/2016/02/quinoa-and-edamame-salad-3.jpg"
"Quinoa Salad","http://akc.verbbrands.com/recipes/quinoa-salad","http://akc.verbbrands.com/wp-content/uploads/2012/06/Quinona-Salad-3.jpg"
"Raspberry & Banana Smoothie","http://akc.verbbrands.com/recipes/raspberry-banana-smoothie","http://akc.verbbrands.com/wp-content/uploads/2015/07/Raspberry_and_Banana_Smoothie-3.jpg"
"Raspberry & Blackberry Crumble","http://akc.verbbrands.com/recipes/raspberry-blackberry-crumble","http://akc.verbbrands.com/wp-content/uploads/2015/07/Raspberry_Blackberry_Crumble-3.jpg"
"Raspberry & Chocolate Ice Lollies","http://akc.verbbrands.com/recipes/raspberry-chocolate-ice-lollies","http://akc.verbbrands.com/wp-content/uploads/2010/04/Raspberry-and-Chocolate-Ice-Lollies-3.jpg"
"Raspberry Ripple Ice Cream","http://akc.verbbrands.com/recipes/raspberry-ripple-ice-cream","http://akc.verbbrands.com/wp-content/uploads/2010/04/Raspberry-Ripple-3.jpg"
"Red Onion & Tomato Bread","http://akc.verbbrands.com/recipes/red-onion-tomato-bread","http://akc.verbbrands.com/wp-content/uploads/2009/07/Red-Onion-and-Tomato-Bread-3.jpg"
"Red Velvet Cupcakes","http://akc.verbbrands.com/recipes/red-velvet-cupcakes-2","http://akc.verbbrands.com/wp-content/uploads/2015/07/Red_Velvet_Cupcakes-3.jpg"
"Red Velvet Cupcakes","http://akc.verbbrands.com/recipes/red-velvet-cupcakes","http://akc.verbbrands.com/wp-content/uploads/2016/02/red-velvet-cupcakes-new-3.jpg"
"Red Velvet Cupcakes","http://akc.verbbrands.com/recipes/red-velvet-cupcakes-3","http://akc.verbbrands.com/wp-content/uploads/2009/01/Red-velvet-cupcakes-3.jpg"
"Reindeer Cookies","http://akc.verbbrands.com/recipes/reindeer-cookies","http://akc.verbbrands.com/wp-content/uploads/2015/07/Reindeer_Cookies-3.jpg"
"Reindeer Cookies","http://akc.verbbrands.com/recipes/reindeer-cookies-2","http://akc.verbbrands.com/wp-content/uploads/2014/12/annabel-karmels-reindeer-cookies-3.jpg"
"Rhubarb & Apple Crumble","http://akc.verbbrands.com/recipes/rhubarb-apple-crumble","http://akc.verbbrands.com/wp-content/uploads/2015/07/Rhubarb_Apple_Crumble-3.jpg"
"Rhubarb Crumble","http://akc.verbbrands.com/recipes/rhubarb-crumble","http://akc.verbbrands.com/wp-content/uploads/2007/08/Rhubarb-Curmble-3.jpg"
"Rice Krispie Football Team","http://akc.verbbrands.com/recipes/rice-krispie-football-team","http://akc.verbbrands.com/wp-content/uploads/2010/06/FootballTeam-3.jpg"
"Risotto Primavera","http://akc.verbbrands.com/recipes/risotto-primavera","http://akc.verbbrands.com/wp-content/uploads/2010/03/Risotto-Primavera-3.jpg"
"Risotto with Butternut Squash","http://akc.verbbrands.com/recipes/risotto-with-butternut-squash","http://akc.verbbrands.com/wp-content/uploads/2012/01/butternut-squash-risotto-2-3.jpg"
"Roast Leg of Lamb","http://akc.verbbrands.com/recipes/roast-leg-of-lamb","http://akc.verbbrands.com/wp-content/uploads/2016/01/roast-leg-lamb-3.jpg"
"Roast Potatoes with Rosemary","http://akc.verbbrands.com/recipes/roast-potatoes-with-rosemary","http://akc.verbbrands.com/wp-content/uploads/2010/03/Rosemary-Roast-Potatoes-3.jpg"
"Rolled Chicken Quesadilla","http://akc.verbbrands.com/recipes/rolled-chicken-quesadilla","http://akc.verbbrands.com/wp-content/uploads/2009/12/ChickenQuesadillas-3.jpg"
"Rudolph Baked Potato","http://akc.verbbrands.com/recipes/rudolph-baked-potato","http://akc.verbbrands.com/wp-content/uploads/2008/12/rudolph-baked-potato-2-3.jpg"
"Rudolph Cupcakes","http://akc.verbbrands.com/recipes/rudolph-cupcakes","http://akc.verbbrands.com/wp-content/uploads/2010/11/rudolph-cupcakes-3.jpg"
"Rudolph Pancakes","http://akc.verbbrands.com/recipes/rudolph-pancakes","http://akc.verbbrands.com/wp-content/uploads/2015/12/rudolph-pancake-3.jpg"
"Salad Lollipops","http://akc.verbbrands.com/recipes/salad-lollipops","http://akc.verbbrands.com/wp-content/uploads/2015/06/Salad-Lollipop-3.jpg"
"Salmon & Corn Chowder","http://akc.verbbrands.com/recipes/salmon-corn-chowder","http://akc.verbbrands.com/wp-content/uploads/2009/12/SalmonChowder-3.jpg"
"Salmon & Rice Salad","http://akc.verbbrands.com/recipes/salmon-rice-salad","http://akc.verbbrands.com/wp-content/uploads/2009/05/Yummy-salmon-and-rice-salad-3.jpg"
"Salmon Fishcakes","http://akc.verbbrands.com/recipes/salmon-fishcakes","http://akc.verbbrands.com/wp-content/uploads/2009/06/salmon-fishcakes-jan16-3.jpg"
"Salmon Footballs","http://akc.verbbrands.com/recipes/salmon-footballs","http://akc.verbbrands.com/wp-content/uploads/2008/04/Salmon-Footballs.jpg"
"Salmon Surprise Puree","http://akc.verbbrands.com/recipes/salmon-surprise-puree","http://akc.verbbrands.com/wp-content/uploads/2007/08/salmon-suprise-puree-3.jpg"
"Salmon Teriyaki Kebabs","http://akc.verbbrands.com/recipes/salmon-teriyaki-kebabs","http://akc.verbbrands.com/wp-content/uploads/2009/12/Salmon-Teriyaki-Kebabs-3.jpg"
"Salmon with Tomato Salsa","http://akc.verbbrands.com/recipes/salmon-with-tomato-salsa","http://akc.verbbrands.com/wp-content/uploads/2012/06/Salmon-with-tomato-salsa-3.jpg"
"Salmon, Sweet Pepper, Carrot & Tomato","http://akc.verbbrands.com/recipes/salmon-sweet-pepper-carrot-tomato","http://akc.verbbrands.com/wp-content/uploads/2015/01/Salmon_carrot_and_pepper_puree-3.jpg"
"Salmon, Sweet Potato & Spinach","http://akc.verbbrands.com/recipes/salmon-sweet-potato-spinach","http://akc.verbbrands.com/wp-content/uploads/2016/04/salmon-sweetpotato-spinach-3.jpg"
"Salmon, Tomato & Sweet Potato","http://akc.verbbrands.com/recipes/salmon-tomato-sweet-potato","http://akc.verbbrands.com/wp-content/uploads/2010/05/SalmosTomatoSweetPotatoPuree-3.jpg"
"Salt & Pepper Squid","http://akc.verbbrands.com/recipes/salt-pepper-squid","http://akc.verbbrands.com/wp-content/uploads/2015/07/Salt-and-Pepper-Squid-3.jpg"
"Santa Claus at the Ritz","http://akc.verbbrands.com/recipes/santa-claus-at-the-ritz","http://akc.verbbrands.com/wp-content/uploads/2013/12/Santa-Canapes-3.jpg"
"Sausage & Onion Kebabs","http://akc.verbbrands.com/recipes/sausage-onion-kebabs","http://akc.verbbrands.com/wp-content/uploads/2009/06/Sausage-and-Onion-Kebabs-3.jpg"
"Sausage Rockets","http://akc.verbbrands.com/recipes/sausage-rockets","http://akc.verbbrands.com/wp-content/uploads/2008/11/SausageRockets-3.jpg"
"Sausage Stockings","http://akc.verbbrands.com/recipes/sausage-stockings","http://akc.verbbrands.com/wp-content/uploads/2013/12/Sausage-Stockings-3.jpg"
"Savoury Pancake","http://akc.verbbrands.com/recipes/savoury-pancake","http://akc.verbbrands.com/wp-content/uploads/2016/01/Savoury-Pancake-3.jpg"
"Scrambled Eggs with Tomato & Onion","http://akc.verbbrands.com/recipes/scrambled-eggs-with-tomato-onion","http://akc.verbbrands.com/wp-content/uploads/2014/08/Scrambled-Eggs-with-Tomato-Onion-3.jpg"
"Scrambled Eggs with Tomato Salsa on English Muffin","http://akc.verbbrands.com/recipes/scrambled-eggs-with-tomato-salsa-on-english-muffin","http://akc.verbbrands.com/wp-content/uploads/2015/08/Scrambled_Eggs_with_Tomato_Salsa_on_English_Muffin-3.jpg"
"Sea Bass with Spring Vegetables","http://akc.verbbrands.com/recipes/sea-bass-with-spring-vegetables","http://akc.verbbrands.com/wp-content/uploads/2015/05/SEA-BASS-WITH-SPRING-VEGETABLES-3.jpg"
"Sesame Beef Stir Fry","http://akc.verbbrands.com/recipes/sesame-beef-stir-fry","http://akc.verbbrands.com/wp-content/uploads/2008/03/Sesame-Beef-Stir-Fry-3.jpg"
"Sesame Chicken Salad with Spiralized Cucumber","http://akc.verbbrands.com/recipes/sesame-chicken-salad-with-spiralized-cucumber","http://akc.verbbrands.com/wp-content/uploads/2015/08/Sesame_Chicken_Salad_with_Spiralized_Cucumber-3.jpg"
"Sherry Berry Dessert","http://akc.verbbrands.com/recipes/sherry-berry-dessert","http://akc.verbbrands.com/wp-content/uploads/2015/07/Sherry-Berry-Dessert-3.jpg"
"Singapore Noodles","http://akc.verbbrands.com/recipes/singapore-noodles","http://akc.verbbrands.com/wp-content/uploads/2008/11/Singapore-Noodles-3.jpg"
"Skeleton Vegetable Dip","http://akc.verbbrands.com/recipes/skeleton-vegetable-dip","http://akc.verbbrands.com/wp-content/uploads/2013/09/Skeleton_Vegetable_Dip-3.jpg"
"Snake Sandwich","http://akc.verbbrands.com/recipes/snake-sandwich","http://akc.verbbrands.com/wp-content/uploads/2013/06/SnakeSandwich-3.jpg"
"Snowman Christmas Cupcakes","http://akc.verbbrands.com/recipes/snowman-christmas-cupcakes","http://akc.verbbrands.com/wp-content/uploads/2008/12/Snowman-cupcakes-3.jpg"
"Snowman Cupcakes","http://akc.verbbrands.com/recipes/snowman-cupcakes-2","http://akc.verbbrands.com/wp-content/uploads/2013/12/Snowman-Cupcakes_1-3.jpg"
"Snowman Cupcakes","http://akc.verbbrands.com/recipes/snowman-cupcakes","http://akc.verbbrands.com/wp-content/uploads/2015/12/snowman-cupcakes-2015-3.jpg"
"Sole with Squash, Kale & Peas","http://akc.verbbrands.com/recipes/sole-with-squash-kale-peas","http://akc.verbbrands.com/wp-content/uploads/2016/08/HF_SoleWork-3.png"
"Spaghetti Carbonara","http://akc.verbbrands.com/recipes/spaghetti-carbonara","http://akc.verbbrands.com/wp-content/uploads/2009/01/spaghetti-carbonara-3.jpg"
"Spaghetti Primavera","http://akc.verbbrands.com/recipes/spaghetti-primavera","http://akc.verbbrands.com/wp-content/uploads/2007/08/Spaghetti-Primavera-3.jpg"
"Spaghetti with Pesto","http://akc.verbbrands.com/recipes/spaghetti-with-pesto","http://akc.verbbrands.com/wp-content/uploads/2010/02/Pesto-Sauce-3.jpg"
"Spaghettini with Fresh Tomatoes","http://akc.verbbrands.com/recipes/spaghettini-with-fresh-tomatoes","http://akc.verbbrands.com/wp-content/uploads/2016/04/spaghettini-with-tomatoes-3.jpg"
"Spanish Omelette","http://akc.verbbrands.com/recipes/spanish-omelette","http://akc.verbbrands.com/wp-content/uploads/2008/09/Spanish-Omlette-3.jpg"
"Spiced Courgette, Pumpkin Seed & Chia Seed Muffin","http://akc.verbbrands.com/recipes/spiced-courgette-pumpkin-seed-chia-seed-muffin","http://akc.verbbrands.com/wp-content/uploads/2015/05/Spiced-Courgette-Pumpkin-Seed-and-Chia-Seed-Muffin-3.jpg"
"Spinach & Cheese Vegetarian Lasagne","http://akc.verbbrands.com/recipes/spinach-cheese-vegetarian-lasagne","http://akc.verbbrands.com/wp-content/uploads/2007/08/SpinachCheeseLasagne-3.jpg"
"Spinach, Potato, Carrot & Cheddar Mash","http://akc.verbbrands.com/recipes/spinach-potato-carrot-cheddar-mash","http://akc.verbbrands.com/wp-content/uploads/2016/08/39894297Carrot_spin_PotatoWorkLres-3.jpg"
"Spiralized Vegetables with Roasted Red Pepper & Tomato Pesto","http://akc.verbbrands.com/recipes/spiralized-vegetables-with-roasted-red-pepper-tomato-pesto","http://akc.verbbrands.com/wp-content/uploads/2015/08/Spiralized_Vegetables_with_Roasted_Red_Pepper_and_Tomato_Pesto-3.jpg"
"Spiralized Zucchini Spaghetti with Fresh Tomato Sauce","http://akc.verbbrands.com/recipes/spiralized-zucchini-spaghetti-with-fresh-tomato-sauce","http://akc.verbbrands.com/wp-content/uploads/2015/05/Spiralized-Zucchini-Spaghetti-with-Fresh-Tomato-Sauce-3.jpg"
"Squash, Carrot, Pepper & Leek","http://akc.verbbrands.com/recipes/squash-carrot-pepper-leek","http://akc.verbbrands.com/wp-content/uploads/2015/06/Squash-Carrot-Pepper-and-Leek-3.jpg"
"Stained Glass Window Cookies","http://akc.verbbrands.com/recipes/stained-glass-window-cookies","http://akc.verbbrands.com/wp-content/uploads/2008/12/Stained-glass-window-cookies-3.jpg"
"Steak with Tarragon & Mushroom Sauce","http://akc.verbbrands.com/recipes/steak-with-tarragon-mushroom-sauce","http://akc.verbbrands.com/wp-content/uploads/2014/03/Steak-with-Tarragon-and-Mushroom-Sauce-3.jpg"
"Steak Wrap with Tomatoes & Peppers","http://akc.verbbrands.com/recipes/steak-wrap-with-tomatoes-peppers","http://akc.verbbrands.com/wp-content/uploads/2015/05/Steak-Wrap-with-Tomatoes-and-Peppers-3.jpg"
"Sticky Mango Chicken","http://akc.verbbrands.com/recipes/sticky-mango-chicken","http://akc.verbbrands.com/wp-content/uploads/2008/03/Sticky-Mango-Chicken-3.jpg"
"Sticky Salmon","http://akc.verbbrands.com/recipes/sticky-salmon","http://akc.verbbrands.com/wp-content/uploads/2007/08/Sticky-salmon-3.jpg"
"Sticky Tuna with Ribbon Noodles","http://akc.verbbrands.com/recipes/sticky-tuna-with-ribbon-noodles","http://akc.verbbrands.com/wp-content/uploads/2012/06/Sticky-Tuna-with-Ribbon-Noodles-3.jpg"
"Strawberry & Watermelon Ice Lollies","http://akc.verbbrands.com/recipes/strawberry-watermelon-ice-lollies","http://akc.verbbrands.com/wp-content/uploads/2009/07/Watermelon-Ice-Lollies-3.jpg"
"Strawberry Crepes","http://akc.verbbrands.com/recipes/strawberry-crepes","http://akc.verbbrands.com/wp-content/uploads/2010/02/StrawberryCrepes-3.jpg"
"Strawberry Sorbet","http://akc.verbbrands.com/recipes/strawberry-sorbet","http://akc.verbbrands.com/wp-content/uploads/2008/06/Strawberry-Sorbet-3.jpg"
"Strawberry, Peach & Pear Puree","http://akc.verbbrands.com/recipes/strawberry-peach-pear-puree","http://akc.verbbrands.com/wp-content/uploads/2015/07/Strawberry_and_Banana-3.jpg"
"Stuffed Pitta Pockets","http://akc.verbbrands.com/recipes/stuffed-pitta-pockets","http://akc.verbbrands.com/wp-content/uploads/2007/08/Tuna-Pitta-Pockets-3.jpg"
"Stuffed Sweet Potatoes with Bacon","http://akc.verbbrands.com/recipes/stuffed-sweet-potatoes-with-bacon","http://akc.verbbrands.com/wp-content/uploads/2010/10/Stuffed-sweet-potato-3.jpg"
"Summer Fruit Jelly","http://akc.verbbrands.com/recipes/summer-fruit-jelly","http://akc.verbbrands.com/wp-content/uploads/2016/08/Jelly-3.jpg"
"Summer Fruit Puree","http://akc.verbbrands.com/recipes/summer-fruit-puree","http://akc.verbbrands.com/wp-content/uploads/2016/08/Summer-Fruit-Puree-3.jpg"
"Summer Fruit Puree","http://akc.verbbrands.com/recipes/summer-fruit-puree-2","http://akc.verbbrands.com/wp-content/uploads/2008/06/summer-fruit-puree-3.jpg"
"Summer Risotto","http://akc.verbbrands.com/recipes/summer-risotto","http://akc.verbbrands.com/wp-content/uploads/2009/05/Summer-Risotto-3.jpg"
"Sunshine Smoothie","http://akc.verbbrands.com/recipes/sunshine-smoothie","http://akc.verbbrands.com/wp-content/uploads/2013/05/Sunshine-Smoothie-3.jpg"
"Super C Smoothie","http://akc.verbbrands.com/recipes/super-c-smoothie","http://akc.verbbrands.com/wp-content/uploads/2009/04/Super-C-Smoothie-3.jpg"
"Super Seasonal Flapjacks","http://akc.verbbrands.com/recipes/super-seasonal-flapjacks","http://akc.verbbrands.com/wp-content/uploads/2015/12/super-seasonal-flapjacks-3.jpg"
"Superfood Chicken Salad with Quinoa","http://akc.verbbrands.com/recipes/superfood-chicken-salad-with-quinoa","http://akc.verbbrands.com/wp-content/uploads/2016/04/superfood-chicken-salad-with-quinoa-3.jpg"
"Superfoods Puree","http://akc.verbbrands.com/recipes/superfoods-puree","http://akc.verbbrands.com/wp-content/uploads/2009/04/Superfoods-Puree-3.jpg"
"Sweet & Sour Chicken","http://akc.verbbrands.com/recipes/sweet-sour-chicken","http://akc.verbbrands.com/wp-content/uploads/2007/08/Sweet-and-sour-chicken-3.jpg"
"Sweet Chilli Wrap","http://akc.verbbrands.com/recipes/sweet-chilli-wrap","http://akc.verbbrands.com/wp-content/uploads/2010/04/Sweet-Chilli-Chicken-Wrap-3.jpg"
"Sweet Potato & Tomato Sauce","http://akc.verbbrands.com/recipes/sweet-potato-tomato-sauce","http://akc.verbbrands.com/wp-content/uploads/2007/12/tomato-and-sweet-potato-sauce-3.jpg"
"Sweet Potato Bunnies","http://akc.verbbrands.com/recipes/sweet-potato-bunnies","http://akc.verbbrands.com/wp-content/uploads/2015/02/Sweet-Potato-Bunnies-3.jpg"
"Sweet Potato, Pear & Broccoli","http://akc.verbbrands.com/recipes/sweet-potato-pear-broccoli","http://akc.verbbrands.com/wp-content/uploads/2016/08/Sweet-Potato-Pear-and-Broccoli-3.jpg"
"Sweet Potato, Pear & Broccoli","http://akc.verbbrands.com/recipes/sweet-potato-pear-broccoli-2","http://akc.verbbrands.com/wp-content/uploads/2015/06/Sweet-Potato-Pear-and-Broccoli-3.jpg"
"Sweetcorn Fritters","http://akc.verbbrands.com/recipes/sweetcorn-fritters","http://akc.verbbrands.com/wp-content/uploads/2009/10/SweetcornFritters-3.jpg"
"Sweetheart Biscuits","http://akc.verbbrands.com/recipes/sweetheart-biscuits","http://akc.verbbrands.com/wp-content/uploads/2010/02/Sweetheart-Biscuits-3.jpg"
"Tagine Recipe with Pork & Beef Meatballs","http://akc.verbbrands.com/recipes/tagine-recipe-with-pork-beef-meatballs","http://akc.verbbrands.com/wp-content/uploads/2009/01/Meatball-tagine-3.jpg"
"Tasty Beef Tagine with Sweet Potato","http://akc.verbbrands.com/recipes/tasty-beef-tagine-with-sweet-potato","http://akc.verbbrands.com/wp-content/uploads/2014/06/Tasty-Beef-Tagine-with-Sweet-Potato-3.jpg"
"Tasty Chicken & Rice","http://akc.verbbrands.com/recipes/tasty-chicken-rice","http://akc.verbbrands.com/wp-content/uploads/2016/08/HF_NewChickenWork-3.jpg"
"Tasty Fish & Sweet Potato Puree","http://akc.verbbrands.com/recipes/tasty-fish-sweet-potato-puree","http://akc.verbbrands.com/wp-content/uploads/2008/10/Tasty-Fish-with-Sweet-Potato-Puree-3.jpg"
"Tasty Teddy Bear Sandwiches","http://akc.verbbrands.com/recipes/tasty-teddy-bear-sandwiches","http://akc.verbbrands.com/wp-content/uploads/2008/07/Teddy-Bear-Sandwiches-3.jpg"
"Teddy Bear Cupcakes","http://akc.verbbrands.com/recipes/teddy-bear-cupcakes","http://akc.verbbrands.com/wp-content/uploads/2008/07/TeddyBearCupcakes-3.jpg"
"Teddy Bear Pizzas","http://akc.verbbrands.com/recipes/teddy-bear-pizzas","http://akc.verbbrands.com/wp-content/uploads/2016/05/Teddy_Bear_Pizzas-3.jpg"
"Tender Beef Stir Fry","http://akc.verbbrands.com/recipes/tender-beef-stir-fry","http://akc.verbbrands.com/wp-content/uploads/2012/06/Tender-Beef-Stir-Fry-3.jpg"
"Teriyaki Beef Skewers","http://akc.verbbrands.com/recipes/teriyaki-beef-skewers","http://akc.verbbrands.com/wp-content/uploads/2009/10/TeriyakiBeef-3.jpg"
"Thai Prawn Kebabs","http://akc.verbbrands.com/recipes/thai-prawn-kebabs","http://akc.verbbrands.com/wp-content/uploads/2010/04/Thai-Prawn-Kebabs-3.jpg"
"Thai Spiced Beef Curry with Sweet Potato","http://akc.verbbrands.com/recipes/thai-spiced-beef-curry-with-sweet-potato","http://akc.verbbrands.com/wp-content/uploads/2015/05/Thai-Spiced-Beef-Curry-with-Sweet-Potato-3.jpg"
"Thai-Style Chicken Stir Fry","http://akc.verbbrands.com/recipes/thai-style-chicken-stir-fry","http://akc.verbbrands.com/wp-content/uploads/2015/06/Thai-Style-Chicken-Stir-Fry-3.jpg"
"Thanksgiving Cupcakes","http://akc.verbbrands.com/recipes/thanksgiving-cupcakes","http://akc.verbbrands.com/wp-content/uploads/2015/11/Thanksgiving_chocolate_cupcakes-3.jpg"
"The Very Hungry Caterpillar","http://akc.verbbrands.com/recipes/the-very-hungry-caterpillar","http://akc.verbbrands.com/wp-content/uploads/2015/03/The-Very-Hungry-Caterpillar-3.jpg"
"Three Cheese Sauce","http://akc.verbbrands.com/recipes/three-cheese-sauce","http://akc.verbbrands.com/wp-content/uploads/2009/02/Three-cheese-sauce-3.jpg"
"Tiger Prawn & Mango Salad","http://akc.verbbrands.com/recipes/tiger-prawn-mango-salad","http://akc.verbbrands.com/wp-content/uploads/2015/07/Tiger-Prawn-and-Mango-Salad-3.jpg"
"Toffee Apples","http://akc.verbbrands.com/recipes/toffee-apples","http://akc.verbbrands.com/wp-content/uploads/2008/11/Toffee-Apple-3.jpg"
"Tomato & Butternut Squash Pasta","http://akc.verbbrands.com/recipes/tomato-butternut-squash-pasta","http://akc.verbbrands.com/wp-content/uploads/2016/04/tomato-butternutsquashpasta-3.jpg"
"Tomato Tulips","http://akc.verbbrands.com/recipes/tomato-tulips","http://akc.verbbrands.com/wp-content/uploads/2015/02/Tasty-Tulips-3.jpg"
"Tomato, Carrot & Cheese","http://akc.verbbrands.com/recipes/tomato-carrot-cheese","http://akc.verbbrands.com/wp-content/uploads/2007/12/CarrotCheese-3.jpg"
"Tortilla Pizza Margherita","http://akc.verbbrands.com/recipes/tortilla-pizza-margherita","http://akc.verbbrands.com/wp-content/uploads/2009/01/Tortilla-Pizza-Margherita-3.jpg"
"Traffic Light Ice Lollies","http://akc.verbbrands.com/recipes/traffic-light-ice-lollies","http://akc.verbbrands.com/wp-content/uploads/2010/04/Traffic-Light-Lollies-3.jpg"
"Trail Mix Bars","http://akc.verbbrands.com/recipes/trail-mix-bars","http://akc.verbbrands.com/wp-content/uploads/2007/08/Trail-Mix-Bars-3.jpg"
"Traybake Chicken with Pesto, Cherry Tomatoes & Parmesan","http://akc.verbbrands.com/recipes/traybake-chicken-with-pesto-cherry-tomatoes-parmesan","http://akc.verbbrands.com/wp-content/uploads/2015/12/chicken-and-pesto-traybake-3.jpg"
"Trio of Finger Sandwiches","http://akc.verbbrands.com/recipes/trio-of-finger-sandwiches","http://akc.verbbrands.com/wp-content/uploads/2016/01/trio-of-finger-sandwiches-3.jpg"
"Trio of Root Veg Puree","http://akc.verbbrands.com/recipes/trio-of-root-veg-puree","http://akc.verbbrands.com/wp-content/uploads/2007/07/Trio_of_root012-3.jpg"
"Tuna Muffin Melts","http://akc.verbbrands.com/recipes/tuna-muffin-melts","http://akc.verbbrands.com/wp-content/uploads/2009/03/Tuna-Muffin-Melts-3.jpg"
"Tuna Pasta Bake","http://akc.verbbrands.com/recipes/tuna-pasta-bake","http://akc.verbbrands.com/wp-content/uploads/2010/07/Tuna-Pasta-Bake-3.jpg"
"Tuna Tagliatelle","http://akc.verbbrands.com/recipes/tuna-tagliatelle","http://akc.verbbrands.com/wp-content/uploads/2007/08/Tuna-Tagliatelle-3.jpg"
"Tuna, Potato, Tomato & Spinach Mash","http://akc.verbbrands.com/recipes/tuna-potato-tomato-spinach-mash","http://akc.verbbrands.com/wp-content/uploads/2015/07/Tuna-3.jpg"
"Turkey & Potato Pie","http://akc.verbbrands.com/recipes/turkey-potato-pie","http://akc.verbbrands.com/wp-content/uploads/2008/12/Turkey-potato-pie-3.jpg"
"Turkey Fruit Salad","http://akc.verbbrands.com/recipes/turkey-fruit-salad","http://akc.verbbrands.com/wp-content/uploads/2015/11/Thanksgiving_turkey_fruit_salad-3.jpg"
"Turkey Meatballs & Spaghetti","http://akc.verbbrands.com/recipes/turkey-meatballs-spaghetti","http://akc.verbbrands.com/wp-content/uploads/2008/06/Turkey-meatballs-and-spaghetti-3.jpg"
"Turkey Pilaf","http://akc.verbbrands.com/recipes/turkey-pilaf","http://akc.verbbrands.com/wp-content/uploads/2013/11/Turkey_Pilaf-3.jpg"
"Turkey with Butternut Squash, Pecan Stuffing and Cranberry Wine Gravy","http://akc.verbbrands.com/recipes/turkey-with-butternut-squash-pecan-stuffing-and-cranberry-wine-gravy","http://akc.verbbrands.com/wp-content/uploads/2015/11/Perfect-Turkey-3.jpg"
"Vegetable Quesadilla","http://akc.verbbrands.com/recipes/vegetable-quesadilla","http://akc.verbbrands.com/wp-content/uploads/2007/11/Vegetable-Quesadillas-3.jpg"
"Vegetable Rosti","http://akc.verbbrands.com/recipes/vegetable-rosti","http://akc.verbbrands.com/wp-content/uploads/2015/05/Vegetable-Rosti-3.jpg"
"Vegetable Sauce","http://akc.verbbrands.com/recipes/vegetable-sauce","http://akc.verbbrands.com/wp-content/uploads/2008/02/VegetableSauce-3.jpg"
"Vegetable Soup","http://akc.verbbrands.com/recipes/vegetable-soup","http://akc.verbbrands.com/wp-content/uploads/2009/12/VegetableSoup-3.jpg"
"Vegetarian Mini Muffin Pizzas","http://akc.verbbrands.com/recipes/vegetarian-mini-muffin-pizzas","http://akc.verbbrands.com/wp-content/uploads/2007/08/MiniMuffinPizzas-3.jpg"
"Vegetarian Sausages","http://akc.verbbrands.com/recipes/vegetarian-sausages","http://akc.verbbrands.com/wp-content/uploads/2007/08/Vegetariansausage-3.jpg"
"Vegetarian Shepherd's Pie","http://akc.verbbrands.com/recipes/vegetarian-shepherds-pie","http://akc.verbbrands.com/wp-content/uploads/2008/10/Vegetarian-shepherds-pie-3.jpg"
"Vietnamese Chicken Noodle Salad","http://akc.verbbrands.com/recipes/vietnamese-chicken-noodle-salad","http://akc.verbbrands.com/wp-content/uploads/2016/04/vietnamese-chicken-noodle-salad-3.jpg"
"Vietnamese Rice Paper Rolls","http://akc.verbbrands.com/recipes/vietnamese-rice-paper-rolls","http://akc.verbbrands.com/wp-content/uploads/2016/01/vietnamese-rice-paper-rolls-3.jpg"
"Vietnamese Rice Paper Rolls with Chicken","http://akc.verbbrands.com/recipes/vietnamese-rice-paper-rolls-with-chicken","http://akc.verbbrands.com/wp-content/uploads/2016/08/HF_VietnameseRolls2work-4.jpg"
"Weaning Recipe - Salmon, Broccoli & Cheese Sauce","http://akc.verbbrands.com/recipes/weaning-recipe-salmon-broccoli-cheese-sauce","http://akc.verbbrands.com/wp-content/uploads/2008/06/Salmon-broccoli-and-cheese-sauce-3.jpg"
"Welsh 'Rabbit' Rarebit","http://akc.verbbrands.com/recipes/welsh-rabbit-rarebit","http://akc.verbbrands.com/wp-content/uploads/2009/11/Welsh-Rarebit-3.jpg"
"White Chocolate Cookies","http://akc.verbbrands.com/recipes/white-chocolate-cookies","http://akc.verbbrands.com/wp-content/uploads/2008/12/white-chocolate-cookies-3.jpg"
"Wild Rice Salad with Cranberries, Turkey & Pomegranates","http://akc.verbbrands.com/recipes/wild-rice-salad-with-cranberries-turkey-pomegranates","http://akc.verbbrands.com/wp-content/uploads/2015/12/wild-rice-turkey-pomegranate-salad-3.jpg"
